1 message sent!
	 	 Connected by 192.168.1.103
syncCounter: 2 and countCheck: 255 
	 	 Connected by 192.168.1.102
syncCounter: 2 and countCheck: 255 
	 	 Connected by 192.168.1.108
syncCounter: 2 and countCheck: 2 
Reply received from robot # 8 
	 	 Connected by 192.168.1.80
syncCounter: 2 and countCheck: 2 
Reply received from robot # 80 
	 	 Connected by 192.168.1.107
syncCounter: 2 and countCheck: 255 
	 	 Connected by 192.168.1.0
No data in Sync which is weird 
	 	 Connected by 192.168.1.106
syncCounter: 2 and countCheck: 2 
Reply received from robot # 6 
	 	 Connected by 192.168.1.104
syncCounter: 2 and countCheck: 255 
	 	 Connected by 192.168.1.101
syncCounter: 2 and countCheck: 255 
	 	 Connected by 192.168.1.105
syncCounter: 2 and countCheck: 255 
2 message sent!
	 	 Connected by 192.168.1.0
No data in Sync which is weird 
	 	 Connected by 192.168.1.106
syncCounter: 3 and countCheck: 3 
Reply received from robot # 6 
	 	 Connected by 192.168.1.101
syncCounter: 3 and countCheck: 3 
Reply received from robot # 1 
	 	 Connected by 192.168.1.105
syncCounter: 3 and countCheck: 3 
Reply received from robot # 5 
	 	 Connected by 192.168.1.107
syncCounter: 3 and countCheck: 3 
Reply received from robot # 7 
	 	 Connected by 192.168.1.108
syncCounter: 3 and countCheck: 3 
Reply received from robot # 8 
	 	 Connected by 192.168.1.104
syncCounter: 3 and countCheck: 3 
Reply received from robot # 4 
	 	 Connected by 192.168.1.102
syncCounter: 3 and countCheck: 3 
Reply received from robot # 2 
	 	 Connected by 192.168.1.80
syncCounter: 3 and countCheck: 3 
Reply received from robot # 80 
3 message sent!
	 	 Connected by 192.168.1.80
syncCounter: 4 and countCheck: 4 
Reply received from robot # 80 
	 	 Connected by 192.168.1.102
syncCounter: 4 and countCheck: 4 
Reply received from robot # 2 
	 	 Connected by 192.168.1.105
syncCounter: 4 and countCheck: 4 
Reply received from robot # 5 
	 	 Connected by 192.168.1.108
syncCounter: 4 and countCheck: 4 
Reply received from robot # 8 
	 	 Connected by 192.168.1.106
syncCounter: 4 and countCheck: 4 
Reply received from robot # 6 
	 	 Connected by 192.168.1.103
syncCounter: 4 and countCheck: 4 
Reply received from robot # 3 
	 	 Connected by 192.168.1.0
No data in Sync which is weird 
	 	 Connected by 192.168.1.101
syncCounter: 4 and countCheck: 4 
Reply received from robot # 1 
4 message sent!
	 	 Connected by 192.168.1.0
No data in Sync which is weird 
	 	 Connected by 192.168.1.80
syncCounter: 5 and countCheck: 5 
Reply received from robot # 80 
	 	 Connected by 192.168.1.107
syncCounter: 5 and countCheck: 5 
Reply received from robot # 7 
	 	 Connected by 192.168.1.105
syncCounter: 5 and countCheck: 5 
Reply received from robot # 5 
	 	 Connected by 192.168.1.106
syncCounter: 5 and countCheck: 5 
Reply received from robot # 6 
	 	 Connected by 192.168.1.101
syncCounter: 5 and countCheck: 5 
Reply received from robot # 1 
	 	 Connected by 192.168.1.108
syncCounter: 5 and countCheck: 5 
Reply received from robot # 8 
	 	 Connected by 192.168.1.102
syncCounter: 5 and countCheck: 5 
Reply received from robot # 2 
	 	 Connected by 192.168.1.103
syncCounter: 5 and countCheck: 5 
Reply received from robot # 3 
5 message sent!
	 	 Connected by 192.168.1.106
syncCounter: 6 and countCheck: 6 
Reply received from robot # 6 
	 	 Connected by 192.168.1.105
0	timed out
No data in Sync which is weird 
	 	 Connected by 192.168.1.102
syncCounter: 6 and countCheck: 6 
Reply received from robot # 2 
	 	 Connected by 192.168.1.101
0	timed out
No data in Sync which is weird 
	 	 Connected by 192.168.1.107
syncCounter: 6 and countCheck: 6 
Reply received from robot # 7 
	 	 Connected by 192.168.1.103
syncCounter: 6 and countCheck: 6 
Reply received from robot # 3 
	 	 Connected by 192.168.1.80
syncCounter: 6 and countCheck: 6 
Reply received from robot # 80 
	 	 Connected by 192.168.1.108
syncCounter: 6 and countCheck: 6 
Reply received from robot # 8 
6 message sent!
	 	 Connected by 192.168.1.103
syncCounter: 7 and countCheck: 7 
Reply received from robot # 3 
	 	 Connected by 192.168.1.101
syncCounter: 7 and countCheck: 7 
Reply received from robot # 1 
	 	 Connected by 192.168.1.105
syncCounter: 7 and countCheck: 7 
Reply received from robot # 5 
	 	 Connected by 192.168.1.0
No data in Sync which is weird 
	 	 Connected by 192.168.1.107
syncCounter: 7 and countCheck: 7 
Reply received from robot # 7 
	 	 Connected by 192.168.1.80
syncCounter: 7 and countCheck: 7 
Reply received from robot # 80 
	 	 Connected by 192.168.1.108
syncCounter: 7 and countCheck: 7 
Reply received from robot # 8 
	 	 Connected by 192.168.1.106
syncCounter: 7 and countCheck: 7 
Reply received from robot # 6 
	 	 Connected by 192.168.1.102
syncCounter: 7 and countCheck: 7 
Reply received from robot # 2 
7 message sent!
	 	 Connected by 192.168.1.104
syncCounter: 8 and countCheck: 8 
Reply received from robot # 4 
	 	 Connected by 192.168.1.105
syncCounter: 8 and countCheck: 8 
Reply received from robot # 5 
	 	 Connected by 192.168.1.106
syncCounter: 8 and countCheck: 8 
Reply received from robot # 6 
	 	 Connected by 192.168.1.102
syncCounter: 8 and countCheck: 8 
Reply received from robot # 2 
	 	 Connected by 192.168.1.107
syncCounter: 8 and countCheck: 8 
Reply received from robot # 7 
	 	 Connected by 192.168.1.0
No data in Sync which is weird 
	 	 Connected by 192.168.1.80
syncCounter: 8 and countCheck: 8 
Reply received from robot # 80 
	 	 Connected by 192.168.1.101
syncCounter: 8 and countCheck: 8 
Reply received from robot # 1 
	 	 Connected by 192.168.1.108
syncCounter: 8 and countCheck: 8 
Reply received from robot # 8 
8 message sent!
	 	 Connected by 192.168.1.0
No data in Sync which is weird 
	 	 Connected by 192.168.1.80
syncCounter: 9 and countCheck: 9 
Reply received from robot # 80 
	 	 Connected by 192.168.1.104
syncCounter: 9 and countCheck: 9 
Reply received from robot # 4 
	 	 Connected by 192.168.1.105
syncCounter: 9 and countCheck: 9 
Reply received from robot # 5 
	 	 Connected by 192.168.1.102
syncCounter: 9 and countCheck: 9 
Reply received from robot # 2 
	 	 Connected by 192.168.1.101
syncCounter: 9 and countCheck: 9 
Reply received from robot # 1 
	 	 Connected by 192.168.1.106
syncCounter: 9 and countCheck: 9 
Reply received from robot # 6 
	 	 Connected by 192.168.1.103
syncCounter: 9 and countCheck: 9 
Reply received from robot # 3 
	 	 Connected by 192.168.1.108
syncCounter: 9 and countCheck: 9 
Reply received from robot # 8 
	 	 Connected by 192.168.1.107
syncCounter: 9 and countCheck: 9 
Reply received from robot # 7 
9 message sent!
	 	 Connected by 192.168.1.104
syncCounter: 10 and countCheck: 10 
Reply received from robot # 4 
	 	 Connected by 192.168.1.103
syncCounter: 10 and countCheck: 10 
Reply received from robot # 3 
	 	 Connected by 192.168.1.102
syncCounter: 10 and countCheck: 10 
Reply received from robot # 2 
	 	 Connected by 192.168.1.105
syncCounter: 10 and countCheck: 10 
Reply received from robot # 5 
	 	 Connected by 192.168.1.101
syncCounter: 10 and countCheck: 10 
Reply received from robot # 1 
	 	 Connected by 192.168.1.108
syncCounter: 10 and countCheck: 10 
Reply received from robot # 8 
	 	 Connected by 192.168.1.106
syncCounter: 10 and countCheck: 10 
Reply received from robot # 6 
	 	 Connected by 192.168.1.0
No data in Sync which is weird 
	 	 Connected by 192.168.1.80
syncCounter: 10 and countCheck: 10 
Reply received from robot # 80 
	 	 Connected by 192.168.1.107
syncCounter: 10 and countCheck: 10 
Reply received from robot # 7 
10 message sent!
	 	 Connected by 192.168.1.101
syncCounter: 11 and countCheck: 11 
Reply received from robot # 1 
	 	 Connected by 192.168.1.106
syncCounter: 11 and countCheck: 11 
Reply received from robot # 6 
	 	 Connected by 192.168.1.107
syncCounter: 11 and countCheck: 11 
Reply received from robot # 7 
	 	 Connected by 192.168.1.103
syncCounter: 11 and countCheck: 11 
Reply received from robot # 3 
	 	 Connected by 192.168.1.105
syncCounter: 11 and countCheck: 11 
Reply received from robot # 5 
	 	 Connected by 192.168.1.102
syncCounter: 11 and countCheck: 11 
Reply received from robot # 2 
	 	 Connected by 192.168.1.108
syncCounter: 11 and countCheck: 11 
Reply received from robot # 8 
	 	 Connected by 192.168.1.104
syncCounter: 11 and countCheck: 11 
Reply received from robot # 4 
	 	 Connected by 192.168.1.0
No data in Sync which is weird 
	 	 Connected by 192.168.1.80
syncCounter: 11 and countCheck: 11 
Reply received from robot # 80 
11 message sent!
	 	 Connected by 192.168.1.108
syncCounter: 12 and countCheck: 12 
Reply received from robot # 8 
	 	 Connected by 192.168.1.103
syncCounter: 12 and countCheck: 12 
Reply received from robot # 3 
	 	 Connected by 192.168.1.107
syncCounter: 12 and countCheck: 12 
Reply received from robot # 7 
	 	 Connected by 192.168.1.80
syncCounter: 12 and countCheck: 12 
Reply received from robot # 80 
	 	 Connected by 192.168.1.106
syncCounter: 12 and countCheck: 12 
Reply received from robot # 6 
	 	 Connected by 192.168.1.101
syncCounter: 12 and countCheck: 12 
Reply received from robot # 1 
	 	 Connected by 192.168.1.104
syncCounter: 12 and countCheck: 12 
Reply received from robot # 4 
	 	 Connected by 192.168.1.105
syncCounter: 12 and countCheck: 12 
Reply received from robot # 5 
	 	 Connected by 192.168.1.102
syncCounter: 12 and countCheck: 12 
Reply received from robot # 2 
