1 message sent!
	 	 Connected by 192.168.1.102
	 	 Connected by 192.168.1.107
	 	 Connected by 192.168.1.106
	 	 Connected by 192.168.1.108
	 	 Connected by 192.168.1.103
	 	 Connected by 192.168.1.101
	 	 Connected by 192.168.1.81
	 	 Connected by 192.168.1.80
	 	 Connected by 192.168.1.104
2 message sent!
	 	 Connected by 192.168.1.101
	 	 Connected by 192.168.1.107
	 	 Connected by 192.168.1.102
	 	 Connected by 192.168.1.104
	 	 Connected by 192.168.1.103
	 	 Connected by 192.168.1.106
	 	 Connected by 192.168.1.108
	 	 Connected by 192.168.1.80
	 	 Connected by 192.168.1.81
3 message sent!
	 	 Connected by 192.168.1.101
	 	 Connected by 192.168.1.80
	 	 Connected by 192.168.1.81
	 	 Connected by 192.168.1.104
	 	 Connected by 192.168.1.108
	 	 Connected by 192.168.1.106
	 	 Connected by 192.168.1.107
	 	 Connected by 192.168.1.102
	 	 Connected by 192.168.1.103
4 message sent!
	 	 Connected by 192.168.1.108
	 	 Connected by 192.168.1.106
	 	 Connected by 192.168.1.107
	 	 Connected by 192.168.1.102
	 	 Connected by 192.168.1.104
	 	 Connected by 192.168.1.103
	 	 Connected by 192.168.1.80
	 	 Connected by 192.168.1.81
5 message sent!
	 	 Connected by 192.168.1.102
	 	 Connected by 192.168.1.101
	 	 Connected by 192.168.1.104
	 	 Connected by 192.168.1.108
	 	 Connected by 192.168.1.107
	 	 Connected by 192.168.1.106
	 	 Connected by 192.168.1.80
	 	 Connected by 192.168.1.81
	 	 Connected by 192.168.1.103
6 message sent!
	 	 Connected by 192.168.1.104
	 	 Connected by 192.168.1.80
	 	 Connected by 192.168.1.103
	 	 Connected by 192.168.1.102
	 	 Connected by 192.168.1.81
	 	 Connected by 192.168.1.101
	 	 Connected by 192.168.1.108
	 	 Connected by 192.168.1.107
	 	 Connected by 192.168.1.106
7 message sent!
	 	 Connected by 192.168.1.101
	 	 Connected by 192.168.1.104
	 	 Connected by 192.168.1.107
	 	 Connected by 192.168.1.102
	 	 Connected by 192.168.1.81
	 	 Connected by 192.168.1.108
	 	 Connected by 192.168.1.106
	 	 Connected by 192.168.1.103
8 message sent!
	 	 Connected by 192.168.1.104
	 	 Connected by 192.168.1.108
	 	 Connected by 192.168.1.106
	 	 Connected by 192.168.1.103
	 	 Connected by 192.168.1.101
	 	 Connected by 192.168.1.107
