
***********Getting IO: 192.168.1.98
***********Robot Message Tuple(128, 127)
***********Robot/Tower 98 is inactive 

***********Getting IO: 192.168.1.99
***********Robot Message Tuple(146, 127)

    Hit: 0 from tower: 99 against Blue Nexus
***********Getting IO: 192.168.1.98
***********Robot Message Tuple(128, 127)

***********Getting IO: 192.168.1.99
***********Robot Message Tuple(146, 127)

    Hit: 0 from tower: 99 against Blue Nexus
***********Getting IO: 192.168.1.98
***********Robot Message Tuple(128, 127)

***********Getting IO: 192.168.1.99
***********Robot Message Tuple(146, 127)

    Hit: 0 from tower: 99 against Blue Nexus
***********Getting IO: 192.168.1.98
***********Robot Message Tuple(128, 127)

***********Getting IO: 192.168.1.99
***********Robot Message Tuple(146, 127)

    Hit: 0 from tower: 99 against Blue Nexus
***********Getting IO: 192.168.1.98
***********Robot Message Tuple(128, 127)

***********Getting IO: 192.168.1.99
***********Robot Message Tuple(146, 127)

    Hit: 0 from tower: 99 against Blue Nexus
***********Getting IO: 192.168.1.98
***********Robot Message Tuple(128, 127)

***********Getting IO: 192.168.1.99
***********Robot Message Tuple(146, 127)

    Hit: 0 from tower: 99 against Blue Nexus
***********Getting IO: 192.168.1.98
***********Robot Message Tuple(128, 127)

***********Getting IO: 192.168.1.99
***********Robot Message Tuple(146, 127)

    Hit: 0 from tower: 99 against Blue Nexus
***********Getting IO: 192.168.1.98
***********Robot Message Tuple(128, 127)

***********Getting IO: 192.168.1.99
***********Robot Message Tuple(146, 127)

    Hit: 0 from tower: 99 against Blue Nexus
***********Getting IO: 192.168.1.98
***********Robot Message Tuple(128, 127)

***********Getting IO: 192.168.1.99
***********Robot Message Tuple(146, 127)

    Hit: 0 from tower: 99 against Blue Nexus
***********Getting IO: 192.168.1.98
***********Robot Message Tuple(128, 127)

***********Getting IO: 192.168.1.99
***********Robot Message Tuple(146, 127)

    Hit: 0 from tower: 99 against Blue Nexus
***********Getting IO: 192.168.1.98
***********Robot Message Tuple(128, 127)

***********Getting IO: 192.168.1.99
***********Robot Message Tuple(146, 127)

    Hit: 0 from tower: 99 against Blue Nexus
***********Getting IO: 192.168.1.98
***********Robot Message Tuple(128, 127)

***********Getting IO: 192.168.1.99
***********Robot Message Tuple(146, 127)

    Hit: 0 from tower: 99 against Blue Nexus
***********Getting IO: 192.168.1.98
***********Robot Message Tuple(128, 127)

***********Getting IO: 192.168.1.99
***********Robot Message Tuple(146, 127)

    Hit: 0 from tower: 99 against Blue Nexus
***********Getting IO: 192.168.1.98
***********Robot Message Tuple(128, 127)

***********Getting IO: 192.168.1.99
***********Robot Message Tuple(146, 127)

    Hit: 0 from tower: 99 against Blue Nexus
***********Getting IO: 192.168.1.98
***********Robot Message Tuple(128, 127)

***********Getting IO: 192.168.1.99
***********Robot Message Tuple(146, 127)

    Hit: 0 from tower: 99 against Blue Nexus
***********Getting IO: 192.168.1.98
***********Robot Message Tuple(128, 127)

***********Getting IO: 192.168.1.99
***********Robot Message Tuple(146, 127)

    Hit: 0 from tower: 99 against Blue Nexus
***********Getting IO: 192.168.1.98
***********Robot Message Tuple(128, 127)

***********Getting IO: 192.168.1.99
***********Robot Message Tuple(146, 127)

    Hit: 0 from tower: 99 against Blue Nexus
***********Getting IO: 192.168.1.98
***********Robot Message Tuple(128, 127)

***********Getting IO: 192.168.1.99
***********Robot Message Tuple(146, 127)

    Hit: 0 from tower: 99 against Blue Nexus
***********Getting IO: 192.168.1.98
***********Robot Message Tuple(128, 127)

***********Getting IO: 192.168.1.99
***********Robot Message Tuple(146, 127)

    Hit: 0 from tower: 99 against Blue Nexus
***********Getting IO: 192.168.1.98
***********Robot Message Tuple(128, 127)

***********Getting IO: 192.168.1.99
***********Robot Message Tuple(146, 127)

    Hit: 0 from tower: 99 against Blue Nexus
***********Getting IO: 192.168.1.98
***********Robot Message Tuple(128, 127)

***********Getting IO: 192.168.1.99
***********Robot Message Tuple(146, 127)

    Hit: 0 from tower: 99 against Blue Nexus
***********Getting IO: 192.168.1.98
***********Robot Message Tuple(128, 127)

***********Getting IO: 192.168.1.99
***********Robot Message Tuple(146, 127)

    Hit: 0 from tower: 99 against Blue Nexus
***********Getting IO: 192.168.1.98
***********Robot Message Tuple(128, 127)

***********Getting IO: 192.168.1.99
***********Robot Message Tuple(146, 127)

    Hit: 0 from tower: 99 against Blue Nexus
***********Getting IO: 192.168.1.99
***********Robot Message Tuple(146, 127)

***********Getting IO: 192.168.1.98
***********Robot Message Tuple(128, 127)

    Hit: 0 from tower: 99 against Blue Nexus
***********Getting IO: 192.168.1.99
***********Robot Message Tuple(146, 127)

***********Getting IO: 192.168.1.98
***********Robot Message Tuple(128, 127)

    Hit: 0 from tower: 99 against Blue Nexus
***********Getting IO: 192.168.1.99
***********Robot Message Tuple(146, 127)

***********Getting IO: 192.168.1.98
***********Robot Message Tuple(128, 127)

    Hit: 0 from tower: 99 against Blue Nexus
***********Getting IO: 192.168.1.99
***********Robot Message Tuple(146, 127)

***********Getting IO: 192.168.1.98
***********Robot Message Tuple(128, 127)

    Hit: 0 from tower: 99 against Blue Nexus
***********Getting IO: 192.168.1.99
***********Robot Message Tuple(146, 127)

***********Getting IO: 192.168.1.98
***********Robot Message Tuple(128, 127)

    Hit: 0 from tower: 99 against Blue Nexus
***********Getting IO: 192.168.1.99
***********Robot Message Tuple(146, 127)

***********Getting IO: 192.168.1.98
***********Robot Message Tuple(128, 127)

    Hit: 0 from tower: 99 against Blue Nexus
***********Getting IO: 192.168.1.98
***********Robot Message Tuple(128, 127)

***********Getting IO: 192.168.1.99
***********Robot Message Tuple(146, 127)

    Hit: 0 from tower: 99 against Blue Nexus
***********Getting IO: 192.168.1.98
***********Robot Message Tuple(128, 127)

***********Getting IO: 192.168.1.99
***********Robot Message Tuple(146, 127)

    Hit: 0 from tower: 99 against Blue Nexus
***********Getting IO: 192.168.1.98
***********Robot Message Tuple(128, 127)

***********Getting IO: 192.168.1.99
***********Robot Message Tuple(146, 127)

    Hit: 0 from tower: 99 against Blue Nexus
***********Getting IO: 192.168.1.98
***********Robot Message Tuple(128, 127)

***********Getting IO: 192.168.1.99
***********Robot Message Tuple(146, 127)

    Hit: 0 from tower: 99 against Blue Nexus
***********Getting IO: 192.168.1.98
***********Robot Message Tuple(128, 127)

***********Getting IO: 192.168.1.99
***********Robot Message Tuple(146, 127)

    Hit: 0 from tower: 99 against Blue Nexus
***********Getting IO: 192.168.1.98
***********Robot Message Tuple(128, 127)

***********Getting IO: 192.168.1.99
***********Robot Message Tuple(146, 127)

    Hit: 0 from tower: 99 against Blue Nexus
***********Getting IO: 192.168.1.98
***********Robot Message Tuple(128, 127)

***********Getting IO: 192.168.1.99
***********Robot Message Tuple(146, 127)

    Hit: 0 from tower: 99 against Blue Nexus
***********Getting IO: 192.168.1.98
***********Robot Message Tuple(128, 127)

***********Getting IO: 192.168.1.99
***********Robot Message Tuple(146, 127)

    Hit: 0 from tower: 99 against Blue Nexus
***********Getting IO: 192.168.1.98
***********Robot Message Tuple(128, 127)

***********Getting IO: 192.168.1.99
***********Robot Message Tuple(146, 127)

    Hit: 0 from tower: 99 against Blue Nexus
***********Getting IO: 192.168.1.98
***********Robot Message Tuple(128, 127)

***********Getting IO: 192.168.1.99
***********Robot Message Tuple(146, 127)

    Hit: 0 from tower: 99 against Blue Nexus
***********Getting IO: 192.168.1.98
***********Robot Message Tuple(128, 127)

***********Getting IO: 192.168.1.99
***********Robot Message Tuple(146, 127)

    Hit: 0 from tower: 99 against Blue Nexus
***********Getting IO: 192.168.1.98
***********Robot Message Tuple(128, 127)

***********Getting IO: 192.168.1.99
***********Robot Message Tuple(146, 127)

    Hit: 0 from tower: 99 against Blue Nexus
***********Getting IO: 192.168.1.98
***********Robot Message Tuple(128, 127)

***********Getting IO: 192.168.1.99
***********Robot Message Tuple(146, 127)

    Hit: 0 from tower: 99 against Blue Nexus
***********Getting IO: 192.168.1.98
***********Robot Message Tuple(128, 127)

***********Getting IO: 192.168.1.99
***********Robot Message Tuple(146, 127)

    Hit: 0 from tower: 99 against Blue Nexus
***********Getting IO: 192.168.1.98
***********Robot Message Tuple(128, 127)

***********Getting IO: 192.168.1.99
***********Robot Message Tuple(146, 127)

    Hit: 0 from tower: 99 against Blue Nexus
***********Getting IO: 192.168.1.98
***********Robot Message Tuple(128, 127)

***********Getting IO: 192.168.1.99
***********Robot Message Tuple(146, 127)

    Hit: 0 from tower: 99 against Blue Nexus
***********Getting IO: 192.168.1.98
***********Robot Message Tuple(128, 127)

***********Getting IO: 192.168.1.99
***********Robot Message Tuple(146, 127)

    Hit: 0 from tower: 99 against Blue Nexus
***********Getting IO: 192.168.1.98
***********Robot Message Tuple(128, 127)

***********Getting IO: 192.168.1.99
***********Robot Message Tuple(146, 127)

    Hit: 0 from tower: 99 against Blue Nexus
***********Getting IO: 192.168.1.98
***********Robot Message Tuple(128, 127)

***********Getting IO: 192.168.1.99
***********Robot Message Tuple(146, 127)

    Hit: 0 from tower: 99 against Blue Nexus
***********Getting IO: 192.168.1.98
***********Robot Message Tuple(128, 127)

***********Getting IO: 192.168.1.99
***********Robot Message Tuple(146, 127)

    Hit: 0 from tower: 99 against Blue Nexus
***********Getting IO: 192.168.1.98
***********Robot Message Tuple(128, 127)

***********Getting IO: 192.168.1.99
***********Robot Message Tuple(146, 127)

    Hit: 0 from tower: 99 against Blue Nexus
***********Getting IO: 192.168.1.98
***********Robot Message Tuple(128, 127)

***********Getting IO: 192.168.1.99
***********Robot Message Tuple(146, 127)

    Hit: 0 from tower: 99 against Blue Nexus
***********Getting IO: 192.168.1.98
***********Robot Message Tuple(128, 127)

***********Getting IO: 192.168.1.99
***********Robot Message Tuple(146, 127)

    Hit: 0 from tower: 99 against Blue Nexus
***********Getting IO: 192.168.1.98
***********Robot Message Tuple(128, 127)

***********Getting IO: 192.168.1.99
***********Robot Message Tuple(146, 127)

    Hit: 0 from tower: 99 against Blue Nexus
***********Getting IO: 192.168.1.98
***********Robot Message Tuple(128, 127)

***********Getting IO: 192.168.1.99
***********Robot Message Tuple(146, 127)

    Hit: 0 from tower: 99 against Blue Nexus
***********Getting IO: 192.168.1.98
***********Robot Message Tuple(128, 127)

***********Getting IO: 192.168.1.99
***********Robot Message Tuple(146, 127)

    Hit: 0 from tower: 99 against Blue Nexus
***********Getting IO: 192.168.1.98
***********Robot Message Tuple(128, 127)

***********Getting IO: 192.168.1.99
***********Robot Message Tuple(146, 127)

    Hit: 0 from tower: 99 against Blue Nexus
***********Getting IO: 192.168.1.98
***********Robot Message Tuple(128, 127)

***********Getting IO: 192.168.1.99
***********Robot Message Tuple(146, 127)

    Hit: 0 from tower: 99 against Blue Nexus
***********Getting IO: 192.168.1.98
***********Robot Message Tuple(128, 127)

***********Getting IO: 192.168.1.99
***********Robot Message Tuple(146, 127)

    Hit: 0 from tower: 99 against Blue Nexus
***********Getting IO: 192.168.1.98
***********Robot Message Tuple(128, 127)

***********Getting IO: 192.168.1.99
***********Robot Message Tuple(146, 127)

    Hit: 0 from tower: 99 against Blue Nexus
***********Getting IO: 192.168.1.98
***********Robot Message Tuple(128, 127)

***********Getting IO: 192.168.1.99
***********Robot Message Tuple(146, 127)

    Hit: 0 from tower: 99 against Blue Nexus
***********Getting IO: 192.168.1.98
***********Robot Message Tuple(128, 127)

***********Getting IO: 192.168.1.99
***********Robot Message Tuple(146, 127)

    Hit: 0 from tower: 99 against Blue Nexus
***********Getting IO: 192.168.1.98
***********Robot Message Tuple(128, 127)

***********Getting IO: 192.168.1.99
***********Robot Message Tuple(146, 127)

    Hit: 0 from tower: 99 against Blue Nexus
***********Getting IO: 192.168.1.98
***********Robot Message Tuple(128, 127)

***********Getting IO: 192.168.1.99
***********Robot Message Tuple(146, 127)

    Hit: 0 from tower: 99 against Blue Nexus
***********Getting IO: 192.168.1.98
***********Robot Message Tuple(128, 127)

***********Getting IO: 192.168.1.99
***********Robot Message Tuple(146, 127)

    Hit: 0 from tower: 99 against Blue Nexus
***********Getting IO: 192.168.1.98
***********Robot Message Tuple(128, 127)

***********Getting IO: 192.168.1.99
***********Robot Message Tuple(146, 127)

    Hit: 0 from tower: 99 against Blue Nexus
***********Getting IO: 192.168.1.98
***********Robot Message Tuple(128, 127)

***********Getting IO: 192.168.1.99
***********Robot Message Tuple(146, 127)

    Hit: 0 from tower: 99 against Blue Nexus
***********Getting IO: 192.168.1.98
***********Robot Message Tuple(128, 127)

***********Getting IO: 192.168.1.99
***********Robot Message Tuple(146, 127)

    Hit: 0 from tower: 99 against Blue Nexus
***********Getting IO: 192.168.1.98
***********Robot Message Tuple(128, 127)

***********Getting IO: 192.168.1.99
***********Robot Message Tuple(146, 127)

    Hit: 0 from tower: 99 against Blue Nexus
***********Getting IO: 192.168.1.98
***********Robot Message Tuple(128, 127)

***********Getting IO: 192.168.1.99
***********Robot Message Tuple(146, 127)

    Hit: 0 from tower: 99 against Blue Nexus
***********Getting IO: 192.168.1.98
***********Robot Message Tuple(128, 127)

***********Getting IO: 192.168.1.99
***********Robot Message Tuple(146, 127)

    Hit: 0 from tower: 99 against Blue Nexus
***********Getting IO: 192.168.1.98
***********Robot Message Tuple(128, 127)

***********Getting IO: 192.168.1.99
***********Robot Message Tuple(146, 127)

    Hit: 0 from tower: 99 against Blue Nexus
***********Getting IO: 192.168.1.98
***********Robot Message Tuple(128, 127)

***********Getting IO: 192.168.1.99
***********Robot Message Tuple(146, 127)

    Hit: 0 from tower: 99 against Blue Nexus
***********Getting IO: 192.168.1.98
***********Robot Message Tuple(128, 127)

***********Getting IO: 192.168.1.99
***********Robot Message Tuple(146, 127)

    Hit: 0 from tower: 99 against Blue Nexus
***********Getting IO: 192.168.1.98
***********Robot Message Tuple(128, 127)

***********Getting IO: 192.168.1.99
***********Robot Message Tuple(146, 127)

    Hit: 0 from tower: 99 against Blue Nexus
***********Getting IO: 192.168.1.98
***********Robot Message Tuple(128, 127)

***********Getting IO: 192.168.1.99
***********Robot Message Tuple(146, 127)

    Hit: 0 from tower: 99 against Blue Nexus
***********Getting IO: 192.168.1.98
***********Robot Message Tuple(128, 127)

***********Getting IO: 192.168.1.99
***********Robot Message Tuple(146, 127)

    Hit: 0 from tower: 99 against Blue Nexus
***********Getting IO: 192.168.1.98
***********Robot Message Tuple(128, 127)

***********Getting IO: 192.168.1.99
***********Robot Message Tuple(146, 127)

    Hit: 0 from tower: 99 against Blue Nexus
***********Getting IO: 192.168.1.98
***********Robot Message Tuple(128, 127)

***********Getting IO: 192.168.1.99
***********Robot Message Tuple(146, 127)

    Hit: 0 from tower: 99 against Blue Nexus
***********Getting IO: 192.168.1.98
***********Robot Message Tuple(128, 127)

***********Getting IO: 192.168.1.99
***********Robot Message Tuple(146, 127)

    Hit: 0 from tower: 99 against Blue Nexus
***********Getting IO: 192.168.1.98
***********Robot Message Tuple(128, 127)

***********Getting IO: 192.168.1.99
***********Robot Message Tuple(146, 127)

    Hit: 0 from tower: 99 against Blue Nexus
***********Getting IO: 192.168.1.98
***********Robot Message Tuple(128, 127)

***********Getting IO: 192.168.1.99
***********Robot Message Tuple(146, 127)

    Hit: 0 from tower: 99 against Blue Nexus
***********Getting IO: 192.168.1.98
***********Robot Message Tuple(128, 127)

***********Getting IO: 192.168.1.99
***********Robot Message Tuple(146, 127)

    Hit: 0 from tower: 99 against Blue Nexus
***********Getting IO: 192.168.1.98
***********Robot Message Tuple(128, 127)

***********Getting IO: 192.168.1.99
***********Robot Message Tuple(146, 127)

    Hit: 0 from tower: 99 against Blue Nexus
***********Getting IO: 192.168.1.98
***********Robot Message Tuple(128, 127)

***********Getting IO: 192.168.1.99
***********Robot Message Tuple(146, 127)

    Hit: 0 from tower: 99 against Blue Nexus
***********Getting IO: 192.168.1.98
***********Robot Message Tuple(128, 127)

***********Getting IO: 192.168.1.99
***********Robot Message Tuple(146, 127)

    Hit: 0 from tower: 99 against Blue Nexus
***********Getting IO: 192.168.1.98
***********Robot Message Tuple(128, 127)

***********Getting IO: 192.168.1.99
***********Robot Message Tuple(146, 127)

    Hit: 0 from tower: 99 against Blue Nexus
***********Getting IO: 192.168.1.98
***********Robot Message Tuple(128, 127)

***********Getting IO: 192.168.1.99
***********Robot Message Tuple(146, 127)

    Hit: 0 from tower: 99 against Blue Nexus
***********Getting IO: 192.168.1.98
***********Robot Message Tuple(128, 127)

***********Getting IO: 192.168.1.99
***********Robot Message Tuple(146, 127)

    Hit: 0 from tower: 99 against Blue Nexus
***********Getting IO: 192.168.1.98
***********Robot Message Tuple(128, 127)

***********Getting IO: 192.168.1.99
***********Robot Message Tuple(146, 127)

    Hit: 0 from tower: 99 against Blue Nexus
***********Getting IO: 192.168.1.98
***********Robot Message Tuple(128, 127)

***********Getting IO: 192.168.1.99
***********Robot Message Tuple(146, 127)

    Hit: 0 from tower: 99 against Blue Nexus
***********Getting IO: 192.168.1.98
***********Robot Message Tuple(128, 127)

***********Getting IO: 192.168.1.99
***********Robot Message Tuple(146, 127)

    Hit: 0 from tower: 99 against Blue Nexus
***********Getting IO: 192.168.1.98
***********Robot Message Tuple(128, 127)

***********Getting IO: 192.168.1.99
***********Robot Message Tuple(146, 127)

    Hit: 0 from tower: 99 against Blue Nexus
***********Getting IO: 192.168.1.98
***********Robot Message Tuple(128, 127)

***********Getting IO: 192.168.1.99
***********Robot Message Tuple(146, 127)

    Hit: 0 from tower: 99 against Blue Nexus
***********Getting IO: 192.168.1.98
***********Robot Message Tuple(128, 127)

***********Getting IO: 192.168.1.99
***********Robot Message Tuple(146, 127)

    Hit: 0 from tower: 99 against Blue Nexus
***********Getting IO: 192.168.1.98
***********Robot Message Tuple(128, 127)

***********Getting IO: 192.168.1.99
***********Robot Message Tuple(146, 127)

    Hit: 0 from tower: 99 against Blue Nexus
***********Getting IO: 192.168.1.98
***********Robot Message Tuple(128, 127)

***********Getting IO: 192.168.1.99
***********Robot Message Tuple(146, 127)

    Hit: 0 from tower: 99 against Blue Nexus
***********Getting IO: 192.168.1.98
***********Robot Message Tuple(128, 127)

***********Getting IO: 192.168.1.99
***********Robot Message Tuple(146, 127)

    Hit: 0 from tower: 99 against Blue Nexus
***********Getting IO: 192.168.1.98
***********Robot Message Tuple(128, 127)

***********Getting IO: 192.168.1.99
***********Robot Message Tuple(146, 127)

    Hit: 0 from tower: 99 against Blue Nexus
***********Getting IO: 192.168.1.98
***********Robot Message Tuple(128, 127)

***********Getting IO: 192.168.1.99
***********Robot Message Tuple(146, 127)

    Hit: 0 from tower: 99 against Blue Nexus
***********Getting IO: 192.168.1.98
***********Robot Message Tuple(128, 127)

***********Getting IO: 192.168.1.99
***********Robot Message Tuple(146, 127)

    Hit: 0 from tower: 99 against Blue Nexus
***********Getting IO: 192.168.1.98
***********Robot Message Tuple(128, 127)

***********Getting IO: 192.168.1.99
***********Robot Message Tuple(146, 127)

    Hit: 0 from tower: 99 against Blue Nexus
***********Getting IO: 192.168.1.98
***********Robot Message Tuple(128, 127)

***********Getting IO: 192.168.1.99
***********Robot Message Tuple(146, 127)

    Hit: 0 from tower: 99 against Blue Nexus
***********Getting IO: 192.168.1.98
***********Robot Message Tuple(128, 127)

***********Getting IO: 192.168.1.99
***********Robot Message Tuple(146, 127)

    Hit: 0 from tower: 99 against Blue Nexus
***********Getting IO: 192.168.1.98
***********Robot Message Tuple(128, 127)

***********Getting IO: 192.168.1.99
***********Robot Message Tuple(146, 127)

    Hit: 0 from tower: 99 against Blue Nexus
***********Getting IO: 192.168.1.98
***********Robot Message Tuple(128, 127)

***********Getting IO: 192.168.1.99
***********Robot Message Tuple(146, 127)

    Hit: 0 from tower: 99 against Blue Nexus
***********Getting IO: 192.168.1.98
***********Robot Message Tuple(128, 127)

***********Getting IO: 192.168.1.99
***********Robot Message Tuple(146, 127)

    Hit: 0 from tower: 99 against Blue Nexus
***********Getting IO: 192.168.1.98
***********Robot Message Tuple(128, 127)

***********Getting IO: 192.168.1.99
***********Robot Message Tuple(146, 127)

    Hit: 0 from tower: 99 against Blue Nexus
***********Getting IO: 192.168.1.98
***********Robot Message Tuple(128, 127)

***********Getting IO: 192.168.1.99
***********Robot Message Tuple(146, 127)

    Hit: 0 from tower: 99 against Blue Nexus
***********Getting IO: 192.168.1.98
***********Robot Message Tuple(128, 127)

***********Getting IO: 192.168.1.99
***********Robot Message Tuple(146, 127)

    Hit: 0 from tower: 99 against Blue Nexus
***********Getting IO: 192.168.1.98
***********Robot Message Tuple(128, 127)

***********Getting IO: 192.168.1.99
***********Robot Message Tuple(146, 127)

    Hit: 0 from tower: 99 against Blue Nexus
***********Getting IO: 192.168.1.98
***********Robot Message Tuple(128, 127)

***********Getting IO: 192.168.1.99
***********Robot Message Tuple(146, 127)

    Hit: 0 from tower: 99 against Blue Nexus
***********Getting IO: 192.168.1.98
***********Robot Message Tuple(128, 127)

***********Getting IO: 192.168.1.99
***********Robot Message Tuple(146, 127)

    Hit: 0 from tower: 99 against Blue Nexus
***********Getting IO: 192.168.1.98
***********Robot Message Tuple(128, 127)

***********Getting IO: 192.168.1.99
***********Robot Message Tuple(146, 127)

    Hit: 0 from tower: 99 against Blue Nexus
***********Getting IO: 192.168.1.98
***********Robot Message Tuple(128, 127)

***********Getting IO: 192.168.1.99
***********Robot Message Tuple(146, 127)

    Hit: 0 from tower: 99 against Blue Nexus
***********Getting IO: 192.168.1.98
***********Robot Message Tuple(128, 127)

***********Getting IO: 192.168.1.99
***********Robot Message Tuple(146, 127)

    Hit: 0 from tower: 99 against Blue Nexus
***********Getting IO: 192.168.1.98
***********Robot Message Tuple(128, 127)

***********Getting IO: 192.168.1.99
***********Robot Message Tuple(146, 127)

    Hit: 0 from tower: 99 against Blue Nexus
***********Getting IO: 192.168.1.98
***********Robot Message Tuple(128, 127)

***********Getting IO: 192.168.1.99
***********Robot Message Tuple(146, 127)

    Hit: 0 from tower: 99 against Blue Nexus
***********Getting IO: 192.168.1.98
***********Robot Message Tuple(128, 127)

***********Getting IO: 192.168.1.99
***********Robot Message Tuple(146, 127)

    Hit: 0 from tower: 99 against Blue Nexus
***********Getting IO: 192.168.1.98
***********Robot Message Tuple(128, 127)

***********Getting IO: 192.168.1.99
***********Robot Message Tuple(146, 127)

    Hit: 0 from tower: 99 against Blue Nexus
***********Getting IO: 192.168.1.98
***********Robot Message Tuple(128, 127)

***********Getting IO: 192.168.1.99
***********Robot Message Tuple(146, 127)

    Hit: 0 from tower: 99 against Blue Nexus
***********Getting IO: 192.168.1.98
***********Robot Message Tuple(128, 127)

***********Getting IO: 192.168.1.99
***********Robot Message Tuple(146, 127)

    Hit: 0 from tower: 99 against Blue Nexus
***********Getting IO: 192.168.1.98
***********Robot Message Tuple(128, 127)

***********Getting IO: 192.168.1.99
***********Robot Message Tuple(146, 127)

    Hit: 0 from tower: 99 against Blue Nexus
***********Getting IO: 192.168.1.98
***********Robot Message Tuple(128, 127)

***********Getting IO: 192.168.1.99
***********Robot Message Tuple(146, 127)

    Hit: 0 from tower: 99 against Blue Nexus
***********Getting IO: 192.168.1.98
***********Robot Message Tuple(128, 127)

***********Getting IO: 192.168.1.99
***********Robot Message Tuple(146, 127)

    Hit: 0 from tower: 99 against Blue Nexus
***********Getting IO: 192.168.1.98
***********Robot Message Tuple(128, 127)

***********Getting IO: 192.168.1.99
***********Robot Message Tuple(146, 127)

    Hit: 0 from tower: 99 against Blue Nexus
***********Getting IO: 192.168.1.98
***********Robot Message Tuple(128, 127)

***********Getting IO: 192.168.1.99
***********Robot Message Tuple(146, 127)

    Hit: 0 from tower: 99 against Blue Nexus
***********Getting IO: 192.168.1.98
***********Robot Message Tuple(128, 127)

***********Getting IO: 192.168.1.99
***********Robot Message Tuple(146, 127)

    Hit: 0 from tower: 99 against Blue Nexus
***********Getting IO: 192.168.1.98
***********Robot Message Tuple(128, 127)

***********Getting IO: 192.168.1.99
***********Robot Message Tuple(146, 127)

    Hit: 0 from tower: 99 against Blue Nexus
***********Getting IO: 192.168.1.98
***********Robot Message Tuple(128, 127)

***********Getting IO: 192.168.1.99
***********Robot Message Tuple(146, 127)

    Hit: 0 from tower: 99 against Blue Nexus
***********Getting IO: 192.168.1.98
***********Robot Message Tuple(128, 127)

***********Getting IO: 192.168.1.99
***********Robot Message Tuple(146, 127)

    Hit: 0 from tower: 99 against Blue Nexus
***********Getting IO: 192.168.1.98
***********Robot Message Tuple(128, 127)

***********Getting IO: 192.168.1.99
***********Robot Message Tuple(146, 127)

    Hit: 0 from tower: 99 against Blue Nexus
***********Getting IO: 192.168.1.98
***********Robot Message Tuple(128, 127)

***********Getting IO: 192.168.1.99
***********Robot Message Tuple(146, 127)

    Hit: 0 from tower: 99 against Blue Nexus
***********Getting IO: 192.168.1.98
***********Robot Message Tuple(128, 127)

***********Getting IO: 192.168.1.99
***********Robot Message Tuple(146, 127)

    Hit: 0 from tower: 99 against Blue Nexus
***********Getting IO: 192.168.1.98
***********Robot Message Tuple(128, 127)

***********Getting IO: 192.168.1.99
***********Robot Message Tuple(146, 127)

    Hit: 0 from tower: 99 against Blue Nexus
***********Getting IO: 192.168.1.98
***********Robot Message Tuple(128, 127)

***********Getting IO: 192.168.1.99
***********Robot Message Tuple(146, 127)

    Hit: 0 from tower: 99 against Blue Nexus
***********Getting IO: 192.168.1.98
***********Robot Message Tuple(128, 127)

***********Getting IO: 192.168.1.99
***********Robot Message Tuple(146, 127)

    Hit: 0 from tower: 99 against Blue Nexus
***********Getting IO: 192.168.1.98
***********Robot Message Tuple(128, 127)

***********Getting IO: 192.168.1.99
***********Robot Message Tuple(146, 127)

    Hit: 0 from tower: 99 against Blue Nexus
***********Getting IO: 192.168.1.98
***********Robot Message Tuple(128, 127)

***********Getting IO: 192.168.1.99
***********Robot Message Tuple(146, 127)

    Hit: 0 from tower: 99 against Blue Nexus
***********Getting IO: 192.168.1.98
***********Robot Message Tuple(128, 127)

***********Getting IO: 192.168.1.99
***********Robot Message Tuple(146, 127)

    Hit: 0 from tower: 99 against Blue Nexus
***********Getting IO: 192.168.1.98
***********Robot Message Tuple(128, 127)

***********Getting IO: 192.168.1.99
***********Robot Message Tuple(146, 127)

    Hit: 0 from tower: 99 against Blue Nexus
***********Getting IO: 192.168.1.98
***********Robot Message Tuple(128, 127)

***********Getting IO: 192.168.1.99
***********Robot Message Tuple(146, 127)

    Hit: 0 from tower: 99 against Blue Nexus
***********Getting IO: 192.168.1.98
***********Robot Message Tuple(128, 127)

***********Getting IO: 192.168.1.99
***********Robot Message Tuple(146, 127)

    Hit: 0 from tower: 99 against Blue Nexus
***********Getting IO: 192.168.1.98
***********Robot Message Tuple(128, 127)

***********Getting IO: 192.168.1.99
***********Robot Message Tuple(146, 127)

    Hit: 0 from tower: 99 against Blue Nexus
***********Getting IO: 192.168.1.98
***********Robot Message Tuple(128, 127)

***********Getting IO: 192.168.1.99
***********Robot Message Tuple(146, 127)

    Hit: 0 from tower: 99 against Blue Nexus
***********Getting IO: 192.168.1.98
***********Robot Message Tuple(128, 127)

***********Getting IO: 192.168.1.99
***********Robot Message Tuple(146, 127)

    Hit: 0 from tower: 99 against Blue Nexus
***********Getting IO: 192.168.1.98
***********Robot Message Tuple(128, 127)

***********Getting IO: 192.168.1.99
***********Robot Message Tuple(146, 127)

    Hit: 0 from tower: 99 against Blue Nexus
***********Getting IO: 192.168.1.98
***********Robot Message Tuple(128, 127)

***********Getting IO: 192.168.1.99
***********Robot Message Tuple(146, 127)

    Hit: 0 from tower: 99 against Blue Nexus
***********Getting IO: 192.168.1.98
***********Robot Message Tuple(128, 127)

***********Getting IO: 192.168.1.99
***********Robot Message Tuple(146, 127)

    Hit: 0 from tower: 99 against Blue Nexus
***********Getting IO: 192.168.1.98
***********Robot Message Tuple(128, 127)

***********Getting IO: 192.168.1.99
***********Robot Message Tuple(146, 127)

    Hit: 0 from tower: 99 against Blue Nexus
***********Getting IO: 192.168.1.98
***********Robot Message Tuple(128, 127)

***********Getting IO: 192.168.1.99
***********Robot Message Tuple(146, 127)

    Hit: 0 from tower: 99 against Blue Nexus
***********Getting IO: 192.168.1.98
***********Robot Message Tuple(128, 127)

***********Getting IO: 192.168.1.99
***********Robot Message Tuple(146, 127)

    Hit: 0 from tower: 99 against Blue Nexus
***********Getting IO: 192.168.1.98
***********Robot Message Tuple(128, 127)

***********Getting IO: 192.168.1.99
***********Robot Message Tuple(146, 127)

    Hit: 0 from tower: 99 against Blue Nexus
***********Getting IO: 192.168.1.98
***********Robot Message Tuple(128, 127)

***********Getting IO: 192.168.1.99
***********Robot Message Tuple(146, 127)

    Hit: 0 from tower: 99 against Blue Nexus
***********Getting IO: 192.168.1.98
***********Robot Message Tuple(128, 127)

***********Getting IO: 192.168.1.99
***********Robot Message Tuple(146, 127)

    Hit: 0 from tower: 99 against Blue Nexus
***********Getting IO: 192.168.1.98
***********Robot Message Tuple(128, 127)

***********Getting IO: 192.168.1.99
***********Robot Message Tuple(146, 127)

    Hit: 0 from tower: 99 against Blue Nexus
***********Getting IO: 192.168.1.98
***********Robot Message Tuple(128, 127)

***********Getting IO: 192.168.1.99
***********Robot Message Tuple(146, 127)

    Hit: 0 from tower: 99 against Blue Nexus
***********Getting IO: 192.168.1.98
***********Robot Message Tuple(128, 127)

***********Getting IO: 192.168.1.99
***********Robot Message Tuple(146, 127)

    Hit: 0 from tower: 99 against Blue Nexus
***********Getting IO: 192.168.1.98
***********Robot Message Tuple(128, 127)

***********Getting IO: 192.168.1.99
***********Robot Message Tuple(146, 127)

    Hit: 0 from tower: 99 against Blue Nexus
***********Getting IO: 192.168.1.98
***********Robot Message Tuple(128, 127)

***********Getting IO: 192.168.1.99
***********Robot Message Tuple(146, 127)

    Hit: 0 from tower: 99 against Blue Nexus
***********Getting IO: 192.168.1.98
***********Robot Message Tuple(128, 127)

***********Getting IO: 192.168.1.99
***********Robot Message Tuple(146, 127)

    Hit: 0 from tower: 99 against Blue Nexus
***********Getting IO: 192.168.1.98
***********Robot Message Tuple(128, 127)

***********Getting IO: 192.168.1.99
***********Robot Message Tuple(146, 127)

    Hit: 0 from tower: 99 against Blue Nexus
***********Getting IO: 192.168.1.98
***********Robot Message Tuple(128, 127)

***********Getting IO: 192.168.1.99
***********Robot Message Tuple(146, 127)

    Hit: 0 from tower: 99 against Blue Nexus
***********Getting IO: 192.168.1.98
***********Robot Message Tuple(128, 127)

***********Getting IO: 192.168.1.99
***********Robot Message Tuple(146, 127)

    Hit: 0 from tower: 99 against Blue Nexus
***********Getting IO: 192.168.1.98
***********Robot Message Tuple(128, 127)

***********Getting IO: 192.168.1.99
***********Robot Message Tuple(146, 127)

    Hit: 0 from tower: 99 against Blue Nexus
***********Getting IO: 192.168.1.98
***********Robot Message Tuple(128, 127)

***********Getting IO: 192.168.1.99
***********Robot Message Tuple(146, 127)

    Hit: 0 from tower: 99 against Blue Nexus
***********Getting IO: 192.168.1.98
***********Robot Message Tuple(128, 127)

***********Getting IO: 192.168.1.99
***********Robot Message Tuple(146, 127)

    Hit: 0 from tower: 99 against Blue Nexus
***********Getting IO: 192.168.1.98
***********Robot Message Tuple(128, 127)

***********Getting IO: 192.168.1.99
***********Robot Message Tuple(146, 127)

    Hit: 0 from tower: 99 against Blue Nexus
***********Getting IO: 192.168.1.98
***********Robot Message Tuple(128, 127)

***********Getting IO: 192.168.1.99
***********Robot Message Tuple(146, 127)

    Hit: 0 from tower: 99 against Blue Nexus
***********Getting IO: 192.168.1.98
***********Robot Message Tuple(128, 127)

***********Getting IO: 192.168.1.99
***********Robot Message Tuple(146, 127)

    Hit: 0 from tower: 99 against Blue Nexus
***********Getting IO: 192.168.1.98
***********Robot Message Tuple(128, 127)

***********Getting IO: 192.168.1.99
***********Robot Message Tuple(146, 127)

    Hit: 0 from tower: 99 against Blue Nexus
***********Getting IO: 192.168.1.98
***********Robot Message Tuple(128, 127)

***********Getting IO: 192.168.1.99
***********Robot Message Tuple(146, 127)

    Hit: 0 from tower: 99 against Blue Nexus
***********Getting IO: 192.168.1.98
***********Robot Message Tuple(128, 127)

***********Getting IO: 192.168.1.99
***********Robot Message Tuple(146, 127)

    Hit: 0 from tower: 99 against Blue Nexus
***********Getting IO: 192.168.1.98
***********Robot Message Tuple(128, 127)

***********Getting IO: 192.168.1.99
***********Robot Message Tuple(146, 127)

    Hit: 0 from tower: 99 against Blue Nexus
***********Getting IO: 192.168.1.98
***********Robot Message Tuple(128, 127)

***********Getting IO: 192.168.1.99
***********Robot Message Tuple(146, 127)

    Hit: 0 from tower: 99 against Blue Nexus
***********Getting IO: 192.168.1.98
***********Robot Message Tuple(128, 127)

***********Getting IO: 192.168.1.99
***********Robot Message Tuple(146, 127)

    Hit: 0 from tower: 99 against Blue Nexus
***********Getting IO: 192.168.1.98
***********Robot Message Tuple(128, 127)

***********Getting IO: 192.168.1.99
***********Robot Message Tuple(146, 127)

    Hit: 0 from tower: 99 against Blue Nexus
***********Getting IO: 192.168.1.98
***********Robot Message Tuple(128, 127)

***********Getting IO: 192.168.1.99
***********Robot Message Tuple(146, 127)

    Hit: 0 from tower: 99 against Blue Nexus
***********Getting IO: 192.168.1.98
***********Robot Message Tuple(128, 127)

***********Getting IO: 192.168.1.99
***********Robot Message Tuple(146, 127)

    Hit: 0 from tower: 99 against Blue Nexus
***********Getting IO: 192.168.1.98
***********Robot Message Tuple(128, 127)

***********Getting IO: 192.168.1.99
***********Robot Message Tuple(146, 127)

    Hit: 0 from tower: 99 against Blue Nexus
***********Getting IO: 192.168.1.98
***********Robot Message Tuple(128, 127)

***********Getting IO: 192.168.1.99
***********Robot Message Tuple(146, 127)

    Hit: 0 from tower: 99 against Blue Nexus
***********Getting IO: 192.168.1.98
***********Robot Message Tuple(128, 127)

***********Getting IO: 192.168.1.99
***********Robot Message Tuple(146, 127)

    Hit: 0 from tower: 99 against Blue Nexus
***********Getting IO: 192.168.1.98
***********Robot Message Tuple(128, 127)

***********Getting IO: 192.168.1.99
***********Robot Message Tuple(146, 127)

    Hit: 0 from tower: 99 against Blue Nexus
***********Getting IO: 192.168.1.98
***********Robot Message Tuple(128, 127)

***********Getting IO: 192.168.1.99
***********Robot Message Tuple(146, 127)

    Hit: 0 from tower: 99 against Blue Nexus
***********Getting IO: 192.168.1.98
***********Robot Message Tuple(128, 127)

***********Getting IO: 192.168.1.99
***********Robot Message Tuple(146, 127)

    Hit: 0 from tower: 99 against Blue Nexus
***********Getting IO: 192.168.1.98
***********Robot Message Tuple(128, 127)

***********Getting IO: 192.168.1.99
***********Robot Message Tuple(146, 127)

    Hit: 0 from tower: 99 against Blue Nexus
***********Getting IO: 192.168.1.98
***********Robot Message Tuple(128, 127)

***********Getting IO: 192.168.1.99
***********Robot Message Tuple(146, 127)

    Hit: 0 from tower: 99 against Blue Nexus
***********Getting IO: 192.168.1.98
***********Robot Message Tuple(128, 127)

***********Getting IO: 192.168.1.99
***********Robot Message Tuple(146, 127)

    Hit: 0 from tower: 99 against Blue Nexus
***********Getting IO: 192.168.1.98
***********Robot Message Tuple(128, 127)

***********Getting IO: 192.168.1.99
***********Robot Message Tuple(146, 127)

    Hit: 0 from tower: 99 against Blue Nexus
***********Getting IO: 192.168.1.98
***********Robot Message Tuple(128, 127)

***********Getting IO: 192.168.1.99
***********Robot Message Tuple(146, 127)

    Hit: 0 from tower: 99 against Blue Nexus
***********Getting IO: 192.168.1.98
***********Robot Message Tuple(128, 127)

***********Getting IO: 192.168.1.99
***********Robot Message Tuple(146, 127)

    Hit: 0 from tower: 99 against Blue Nexus
***********Getting IO: 192.168.1.98
***********Robot Message Tuple(128, 127)

***********Getting IO: 192.168.1.99
***********Robot Message Tuple(146, 127)

    Hit: 0 from tower: 99 against Blue Nexus
***********Getting IO: 192.168.1.98
***********Robot Message Tuple(128, 127)

***********Getting IO: 192.168.1.99
***********Robot Message Tuple(146, 127)

    Hit: 0 from tower: 99 against Blue Nexus
***********Getting IO: 192.168.1.98
***********Robot Message Tuple(128, 127)

***********Getting IO: 192.168.1.99
***********Robot Message Tuple(146, 127)

    Hit: 0 from tower: 99 against Blue Nexus
***********Getting IO: 192.168.1.98
***********Robot Message Tuple(128, 127)

***********Getting IO: 192.168.1.99
***********Robot Message Tuple(146, 127)

    Hit: 0 from tower: 99 against Blue Nexus
***********Getting IO: 192.168.1.98
***********Robot Message Tuple(128, 127)

***********Getting IO: 192.168.1.99
***********Robot Message Tuple(146, 127)

    Hit: 0 from tower: 99 against Blue Nexus
***********Getting IO: 192.168.1.98
***********Robot Message Tuple(128, 127)

***********Getting IO: 192.168.1.99
***********Robot Message Tuple(146, 127)

    Hit: 0 from tower: 99 against Blue Nexus
***********Getting IO: 192.168.1.98
***********Robot Message Tuple(128, 127)

***********Getting IO: 192.168.1.99
***********Robot Message Tuple(146, 127)

    Hit: 0 from tower: 99 against Blue Nexus
***********Getting IO: 192.168.1.98
***********Robot Message Tuple(128, 127)

***********Getting IO: 192.168.1.99
***********Robot Message Tuple(146, 127)

    Hit: 0 from tower: 99 against Blue Nexus
***********Getting IO: 192.168.1.98
***********Robot Message Tuple(128, 127)

***********Getting IO: 192.168.1.99
***********Robot Message Tuple(146, 127)

    Hit: 0 from tower: 99 against Blue Nexus
***********Getting IO: 192.168.1.98
***********Robot Message Tuple(128, 127)

***********Getting IO: 192.168.1.99
***********Robot Message Tuple(146, 127)

    Hit: 0 from tower: 99 against Blue Nexus
***********Getting IO: 192.168.1.98
***********Robot Message Tuple(128, 127)

***********Getting IO: 192.168.1.99
***********Robot Message Tuple(146, 127)

    Hit: 0 from tower: 99 against Blue Nexus
***********Getting IO: 192.168.1.98
***********Robot Message Tuple(128, 127)

***********Getting IO: 192.168.1.99
***********Robot Message Tuple(146, 127)

    Hit: 0 from tower: 99 against Blue Nexus
***********Getting IO: 192.168.1.98
***********Robot Message Tuple(128, 127)

***********Getting IO: 192.168.1.99
***********Robot Message Tuple(146, 127)

    Hit: 0 from tower: 99 against Blue Nexus
***********Getting IO: 192.168.1.98
***********Robot Message Tuple(128, 127)

***********Getting IO: 192.168.1.99
***********Robot Message Tuple(146, 127)

    Hit: 0 from tower: 99 against Blue Nexus
***********Getting IO: 192.168.1.98
***********Robot Message Tuple(128, 127)

***********Getting IO: 192.168.1.99
***********Robot Message Tuple(146, 127)

    Hit: 0 from tower: 99 against Blue Nexus
***********Getting IO: 192.168.1.98
***********Robot Message Tuple(128, 127)

***********Getting IO: 192.168.1.99
***********Robot Message Tuple(146, 127)

    Hit: 0 from tower: 99 against Blue Nexus
***********Getting IO: 192.168.1.98
***********Robot Message Tuple(128, 127)

***********Getting IO: 192.168.1.99
***********Robot Message Tuple(146, 127)

    Hit: 0 from tower: 99 against Blue Nexus
***********Getting IO: 192.168.1.98
***********Robot Message Tuple(128, 127)

***********Getting IO: 192.168.1.99
***********Robot Message Tuple(146, 127)

    Hit: 0 from tower: 99 against Blue Nexus
***********Getting IO: 192.168.1.98
***********Robot Message Tuple(128, 127)

***********Getting IO: 192.168.1.99
***********Robot Message Tuple(146, 127)

    Hit: 0 from tower: 99 against Blue Nexus
***********Getting IO: 192.168.1.98
***********Robot Message Tuple(128, 127)

***********Getting IO: 192.168.1.99
***********Robot Message Tuple(146, 127)

    Hit: 0 from tower: 99 against Blue Nexus
***********Getting IO: 192.168.1.98
***********Robot Message Tuple(128, 127)

***********Getting IO: 192.168.1.99
***********Robot Message Tuple(146, 127)

    Hit: 0 from tower: 99 against Blue Nexus
***********Getting IO: 192.168.1.98
***********Robot Message Tuple(128, 127)

***********Getting IO: 192.168.1.99
***********Robot Message Tuple(146, 127)

    Hit: 0 from tower: 99 against Blue Nexus
***********Getting IO: 192.168.1.98
***********Robot Message Tuple(128, 127)

***********Getting IO: 192.168.1.99
***********Robot Message Tuple(146, 127)

    Hit: 0 from tower: 99 against Blue Nexus
***********Getting IO: 192.168.1.98
***********Robot Message Tuple(128, 127)

***********Getting IO: 192.168.1.99
***********Robot Message Tuple(146, 127)

    Hit: 0 from tower: 99 against Blue Nexus
***********Getting IO: 192.168.1.98
***********Robot Message Tuple(128, 127)

***********Getting IO: 192.168.1.99
***********Robot Message Tuple(146, 127)

    Hit: 0 from tower: 99 against Blue Nexus
***********Getting IO: 192.168.1.98
***********Robot Message Tuple(128, 127)

***********Getting IO: 192.168.1.99
***********Robot Message Tuple(146, 127)

    Hit: 0 from tower: 99 against Blue Nexus
***********Getting IO: 192.168.1.98
***********Robot Message Tuple(128, 127)

***********Getting IO: 192.168.1.99
***********Robot Message Tuple(146, 127)

    Hit: 0 from tower: 99 against Blue Nexus
***********Getting IO: 192.168.1.98
***********Robot Message Tuple(128, 127)

***********Getting IO: 192.168.1.99
***********Robot Message Tuple(146, 127)

    Hit: 0 from tower: 99 against Blue Nexus
***********Getting IO: 192.168.1.98
***********Robot Message Tuple(128, 127)

***********Getting IO: 192.168.1.99
***********Robot Message Tuple(146, 127)

    Hit: 0 from tower: 99 against Blue Nexus
***********Getting IO: 192.168.1.98
***********Robot Message Tuple(128, 127)

***********Getting IO: 192.168.1.99
***********Robot Message Tuple(146, 127)

    Hit: 0 from tower: 99 against Blue Nexus
***********Getting IO: 192.168.1.98
***********Robot Message Tuple(128, 127)

***********Getting IO: 192.168.1.99
***********Robot Message Tuple(146, 127)

    Hit: 0 from tower: 99 against Blue Nexus
***********Getting IO: 192.168.1.98
***********Robot Message Tuple(128, 127)

***********Getting IO: 192.168.1.99
***********Robot Message Tuple(146, 127)

    Hit: 0 from tower: 99 against Blue Nexus
***********Getting IO: 192.168.1.98
***********Robot Message Tuple(128, 127)

***********Getting IO: 192.168.1.99
***********Robot Message Tuple(146, 127)

    Hit: 0 from tower: 99 against Blue Nexus
***********Getting IO: 192.168.1.98
***********Robot Message Tuple(128, 127)

***********Getting IO: 192.168.1.99
***********Robot Message Tuple(146, 127)

    Hit: 0 from tower: 99 against Blue Nexus
***********Getting IO: 192.168.1.98
***********Robot Message Tuple(128, 127)

***********Getting IO: 192.168.1.99
***********Robot Message Tuple(146, 127)

    Hit: 0 from tower: 99 against Blue Nexus