1 message sent!
	 	 Connected by 192.168.1.107
syncCounter: 2 and countCheck: 2 
Reply received from robot # 7 
	 	 Connected by 192.168.1.81
syncCounter: 2 and countCheck: 2 
Reply received from robot # 81 
	 	 Connected by 192.168.1.80
syncCounter: 2 and countCheck: 2 
Reply received from robot # 80 
2 message sent!
	 	 Connected by 192.168.1.107
syncCounter: 3 and countCheck: 3 
Reply received from robot # 7 
	 	 Connected by 192.168.1.81
syncCounter: 3 and countCheck: 3 
Reply received from robot # 81 
	 	 Connected by 192.168.1.80
syncCounter: 3 and countCheck: 3 
Reply received from robot # 80 
3 message sent!
	 	 Connected by 192.168.1.107
syncCounter: 4 and countCheck: 4 
Reply received from robot # 7 
	 	 Connected by 192.168.1.81
syncCounter: 4 and countCheck: 4 
Reply received from robot # 81 
	 	 Connected by 192.168.1.80
syncCounter: 4 and countCheck: 4 
Reply received from robot # 80 
	 	 Connected by 192.168.1.138
syncCounter: 4 and countCheck: 255 
4 message sent!
	 	 Connected by 192.168.1.107
syncCounter: 5 and countCheck: 5 
Reply received from robot # 7 
	 	 Connected by 192.168.1.81
syncCounter: 5 and countCheck: 5 
Reply received from robot # 81 
	 	 Connected by 192.168.1.80
syncCounter: 5 and countCheck: 5 
Reply received from robot # 80 
5 message sent!
	 	 Connected by 192.168.1.107
syncCounter: 6 and countCheck: 6 
Reply received from robot # 7 
	 	 Connected by 192.168.1.81
syncCounter: 6 and countCheck: 6 
Reply received from robot # 81 
	 	 Connected by 192.168.1.80
syncCounter: 6 and countCheck: 6 
Reply received from robot # 80 
	 	 Connected by 192.168.1.111
syncCounter: 6 and countCheck: 255 
6 message sent!
	 	 Connected by 192.168.1.107
syncCounter: 7 and countCheck: 7 
Reply received from robot # 7 
	 	 Connected by 192.168.1.81
syncCounter: 7 and countCheck: 7 
Reply received from robot # 81 
	 	 Connected by 192.168.1.80
syncCounter: 7 and countCheck: 7 
Reply received from robot # 80 
7 message sent!
	 	 Connected by 192.168.1.107
syncCounter: 8 and countCheck: 8 
Reply received from robot # 7 
	 	 Connected by 192.168.1.81
syncCounter: 8 and countCheck: 8 
Reply received from robot # 81 
	 	 Connected by 192.168.1.80
syncCounter: 8 and countCheck: 8 
Reply received from robot # 80 
8 message sent!
	 	 Connected by 192.168.1.107
syncCounter: 9 and countCheck: 9 
Reply received from robot # 7 
	 	 Connected by 192.168.1.81
syncCounter: 9 and countCheck: 9 
Reply received from robot # 81 
	 	 Connected by 192.168.1.80
syncCounter: 9 and countCheck: 9 
Reply received from robot # 80 
9 message sent!
	 	 Connected by 192.168.1.107
syncCounter: 10 and countCheck: 10 
Reply received from robot # 7 
	 	 Connected by 192.168.1.81
syncCounter: 10 and countCheck: 10 
Reply received from robot # 81 
	 	 Connected by 192.168.1.80
syncCounter: 10 and countCheck: 10 
Reply received from robot # 80 
10 message sent!
	 	 Connected by 192.168.1.81
syncCounter: 11 and countCheck: 11 
Reply received from robot # 81 
	 	 Connected by 192.168.1.80
syncCounter: 11 and countCheck: 11 
Reply received from robot # 80 
11 message sent!
	 	 Connected by 192.168.1.81
syncCounter: 12 and countCheck: 12 
Reply received from robot # 81 
	 	 Connected by 192.168.1.80
syncCounter: 12 and countCheck: 12 
Reply received from robot # 80 
	 	 Connected by 192.168.1.139
syncCounter: 12 and countCheck: 255 
12 message sent!
	 	 Connected by 192.168.1.81
syncCounter: 13 and countCheck: 13 
Reply received from robot # 81 
	 	 Connected by 192.168.1.80
syncCounter: 13 and countCheck: 13 
Reply received from robot # 80 
13 message sent!
	 	 Connected by 192.168.1.81
syncCounter: 14 and countCheck: 14 
Reply received from robot # 81 
	 	 Connected by 192.168.1.80
syncCounter: 14 and countCheck: 14 
Reply received from robot # 80 
14 message sent!
	 	 Connected by 192.168.1.81
syncCounter: 15 and countCheck: 15 
Reply received from robot # 81 
	 	 Connected by 192.168.1.80
syncCounter: 15 and countCheck: 15 
Reply received from robot # 80 
15 message sent!
	 	 Connected by 192.168.1.81
syncCounter: 16 and countCheck: 16 
Reply received from robot # 81 
16 message sent!
	 	 Connected by 192.168.1.81
syncCounter: 17 and countCheck: 17 
Reply received from robot # 81 
	 	 Connected by 192.168.1.80
syncCounter: 17 and countCheck: 17 
Reply received from robot # 80 
17 message sent!
	 	 Connected by 192.168.1.81
syncCounter: 18 and countCheck: 18 
Reply received from robot # 81 
	 	 Connected by 192.168.1.80
syncCounter: 18 and countCheck: 18 
Reply received from robot # 80 
18 message sent!
	 	 Connected by 192.168.1.80
syncCounter: 19 and countCheck: 19 
Reply received from robot # 80 
	 	 Connected by 192.168.1.81
syncCounter: 19 and countCheck: 19 
Reply received from robot # 81 
19 message sent!
	 	 Connected by 192.168.1.80
syncCounter: 20 and countCheck: 20 
Reply received from robot # 80 
	 	 Connected by 192.168.1.81
syncCounter: 20 and countCheck: 20 
Reply received from robot # 81 
20 message sent!
	 	 Connected by 192.168.1.80
syncCounter: 21 and countCheck: 21 
Reply received from robot # 80 
	 	 Connected by 192.168.1.81
syncCounter: 21 and countCheck: 21 
Reply received from robot # 81 
21 message sent!
	 	 Connected by 192.168.1.80
syncCounter: 22 and countCheck: 22 
Reply received from robot # 80 
	 	 Connected by 192.168.1.81
syncCounter: 22 and countCheck: 22 
Reply received from robot # 81 
22 message sent!
	 	 Connected by 192.168.1.80
syncCounter: 23 and countCheck: 23 
Reply received from robot # 80 
	 	 Connected by 192.168.1.81
syncCounter: 23 and countCheck: 23 
Reply received from robot # 81 
23 message sent!
	 	 Connected by 192.168.1.80
syncCounter: 24 and countCheck: 24 
Reply received from robot # 80 
	 	 Connected by 192.168.1.81
syncCounter: 24 and countCheck: 24 
Reply received from robot # 81 
	 	 Connected by 192.168.1.137
syncCounter: 24 and countCheck: 255 
24 message sent!
	 	 Connected by 192.168.1.81
syncCounter: 25 and countCheck: 25 
Reply received from robot # 81 
	 	 Connected by 192.168.1.80
syncCounter: 25 and countCheck: 25 
Reply received from robot # 80 
25 message sent!
	 	 Connected by 192.168.1.81
syncCounter: 26 and countCheck: 26 
Reply received from robot # 81 
	 	 Connected by 192.168.1.80
syncCounter: 26 and countCheck: 26 
Reply received from robot # 80 
26 message sent!
	 	 Connected by 192.168.1.81
syncCounter: 27 and countCheck: 27 
Reply received from robot # 81 
	 	 Connected by 192.168.1.80
syncCounter: 27 and countCheck: 27 
Reply received from robot # 80 
27 message sent!
	 	 Connected by 192.168.1.81
syncCounter: 28 and countCheck: 28 
Reply received from robot # 81 
	 	 Connected by 192.168.1.80
syncCounter: 28 and countCheck: 28 
Reply received from robot # 80 
	 	 Connected by 192.168.1.111
syncCounter: 28 and countCheck: 255 
28 message sent!
	 	 Connected by 192.168.1.81
syncCounter: 29 and countCheck: 29 
Reply received from robot # 81 
	 	 Connected by 192.168.1.80
syncCounter: 29 and countCheck: 29 
Reply received from robot # 80 
	 	 Connected by 192.168.1.137
syncCounter: 29 and countCheck: 255 
	 	 Connected by 192.168.1.138
syncCounter: 29 and countCheck: 255 
29 message sent!
	 	 Connected by 192.168.1.80
syncCounter: 30 and countCheck: 30 
Reply received from robot # 80 
	 	 Connected by 192.168.1.81
syncCounter: 30 and countCheck: 30 
Reply received from robot # 81 
	 	 Connected by 192.168.1.103
syncCounter: 30 and countCheck: 255 
30 message sent!
	 	 Connected by 192.168.1.81
syncCounter: 31 and countCheck: 31 
Reply received from robot # 81 
	 	 Connected by 192.168.1.80
syncCounter: 31 and countCheck: 31 
Reply received from robot # 80 
	 	 Connected by 192.168.1.124
syncCounter: 31 and countCheck: 255 
	 	 Connected by 192.168.1.103
syncCounter: 31 and countCheck: 255 
31 message sent!
	 	 Connected by 192.168.1.81
syncCounter: 32 and countCheck: 32 
Reply received from robot # 81 
	 	 Connected by 192.168.1.80
syncCounter: 32 and countCheck: 32 
Reply received from robot # 80 
	 	 Connected by 192.168.1.103
syncCounter: 32 and countCheck: 255 
32 message sent!
	 	 Connected by 192.168.1.80
syncCounter: 33 and countCheck: 33 
Reply received from robot # 80 
	 	 Connected by 192.168.1.81
syncCounter: 33 and countCheck: 33 
Reply received from robot # 81 
33 message sent!
	 	 Connected by 192.168.1.81
syncCounter: 34 and countCheck: 34 
Reply received from robot # 81 
	 	 Connected by 192.168.1.80
syncCounter: 34 and countCheck: 34 
Reply received from robot # 80 
	 	 Connected by 192.168.1.103
syncCounter: 34 and countCheck: 255 
	 	 Connected by 192.168.1.129
syncCounter: 34 and countCheck: 255 
34 message sent!
	 	 Connected by 192.168.1.80
syncCounter: 35 and countCheck: 35 
Reply received from robot # 80 
	 	 Connected by 192.168.1.81
syncCounter: 35 and countCheck: 35 
Reply received from robot # 81 
	 	 Connected by 192.168.1.103
syncCounter: 35 and countCheck: 255 
35 message sent!
	 	 Connected by 192.168.1.80
syncCounter: 36 and countCheck: 36 
Reply received from robot # 80 
	 	 Connected by 192.168.1.81
syncCounter: 36 and countCheck: 36 
Reply received from robot # 81 
	 	 Connected by 192.168.1.129
syncCounter: 36 and countCheck: 255 
36 message sent!
	 	 Connected by 192.168.1.80
syncCounter: 37 and countCheck: 37 
Reply received from robot # 80 
	 	 Connected by 192.168.1.81
syncCounter: 37 and countCheck: 37 
Reply received from robot # 81 
	 	 Connected by 192.168.1.103
syncCounter: 37 and countCheck: 255 
37 message sent!
	 	 Connected by 192.168.1.81
syncCounter: 38 and countCheck: 38 
Reply received from robot # 81 
	 	 Connected by 192.168.1.80
syncCounter: 38 and countCheck: 38 
Reply received from robot # 80 
	 	 Connected by 192.168.1.103
syncCounter: 38 and countCheck: 255 
38 message sent!
	 	 Connected by 192.168.1.81
syncCounter: 39 and countCheck: 39 
Reply received from robot # 81 
	 	 Connected by 192.168.1.80
syncCounter: 39 and countCheck: 39 
Reply received from robot # 80 
	 	 Connected by 192.168.1.129
syncCounter: 39 and countCheck: 255 
	 	 Connected by 192.168.1.103
syncCounter: 39 and countCheck: 255 
	 	 Connected by 192.168.1.129
syncCounter: 39 and countCheck: 255 
39 message sent!
	 	 Connected by 192.168.1.81
syncCounter: 40 and countCheck: 40 
Reply received from robot # 81 
	 	 Connected by 192.168.1.80
syncCounter: 40 and countCheck: 40 
Reply received from robot # 80 
40 message sent!
	 	 Connected by 192.168.1.80
syncCounter: 41 and countCheck: 41 
Reply received from robot # 80 
	 	 Connected by 192.168.1.81
syncCounter: 41 and countCheck: 41 
Reply received from robot # 81 
	 	 Connected by 192.168.1.103
syncCounter: 41 and countCheck: 255 
	 	 Connected by 192.168.1.137
syncCounter: 41 and countCheck: 255 
41 message sent!
	 	 Connected by 192.168.1.80
syncCounter: 42 and countCheck: 42 
Reply received from robot # 80 
	 	 Connected by 192.168.1.81
syncCounter: 42 and countCheck: 42 
Reply received from robot # 81 
	 	 Connected by 192.168.1.129
syncCounter: 42 and countCheck: 255 
	 	 Connected by 192.168.1.103
syncCounter: 42 and countCheck: 255 
42 message sent!
	 	 Connected by 192.168.1.81
syncCounter: 43 and countCheck: 43 
Reply received from robot # 81 
	 	 Connected by 192.168.1.80
syncCounter: 43 and countCheck: 43 
Reply received from robot # 80 
	 	 Connected by 192.168.1.103
syncCounter: 43 and countCheck: 255 
43 message sent!
	 	 Connected by 192.168.1.80
syncCounter: 44 and countCheck: 44 
Reply received from robot # 80 
	 	 Connected by 192.168.1.81
syncCounter: 44 and countCheck: 44 
Reply received from robot # 81 
44 message sent!
	 	 Connected by 192.168.1.80
syncCounter: 45 and countCheck: 45 
Reply received from robot # 80 
	 	 Connected by 192.168.1.81
syncCounter: 45 and countCheck: 45 
Reply received from robot # 81 
	 	 Connected by 192.168.1.103
syncCounter: 45 and countCheck: 255 
	 	 Connected by 192.168.1.106
syncCounter: 45 and countCheck: 255 
45 message sent!
	 	 Connected by 192.168.1.106
syncCounter: 46 and countCheck: 46 
Reply received from robot # 6 
	 	 Connected by 192.168.1.81
syncCounter: 46 and countCheck: 46 
Reply received from robot # 81 
	 	 Connected by 192.168.1.80
syncCounter: 46 and countCheck: 46 
Reply received from robot # 80 
	 	 Connected by 192.168.1.103
syncCounter: 46 and countCheck: 255 
46 message sent!
	 	 Connected by 192.168.1.106
syncCounter: 47 and countCheck: 47 
Reply received from robot # 6 
	 	 Connected by 192.168.1.80
syncCounter: 47 and countCheck: 47 
Reply received from robot # 80 
	 	 Connected by 192.168.1.81
syncCounter: 47 and countCheck: 47 
Reply received from robot # 81 
	 	 Connected by 192.168.1.103
syncCounter: 47 and countCheck: 255 
	 	 Connected by 192.168.1.129
syncCounter: 47 and countCheck: 255 
47 message sent!
	 	 Connected by 192.168.1.106
syncCounter: 48 and countCheck: 48 
Reply received from robot # 6 
	 	 Connected by 192.168.1.81
syncCounter: 48 and countCheck: 48 
Reply received from robot # 81 
	 	 Connected by 192.168.1.80
syncCounter: 48 and countCheck: 48 
Reply received from robot # 80 
	 	 Connected by 192.168.1.103
syncCounter: 48 and countCheck: 255 
	 	 Connected by 192.168.1.111
syncCounter: 48 and countCheck: 255 
48 message sent!
	 	 Connected by 192.168.1.106
syncCounter: 49 and countCheck: 49 
Reply received from robot # 6 
	 	 Connected by 192.168.1.81
syncCounter: 49 and countCheck: 49 
Reply received from robot # 81 
	 	 Connected by 192.168.1.80
syncCounter: 49 and countCheck: 49 
Reply received from robot # 80 
	 	 Connected by 192.168.1.103
syncCounter: 49 and countCheck: 255 
49 message sent!
	 	 Connected by 192.168.1.106
syncCounter: 50 and countCheck: 50 
Reply received from robot # 6 
	 	 Connected by 192.168.1.80
syncCounter: 50 and countCheck: 50 
Reply received from robot # 80 
	 	 Connected by 192.168.1.81
syncCounter: 50 and countCheck: 50 
Reply received from robot # 81 
	 	 Connected by 192.168.1.138
syncCounter: 50 and countCheck: 255 
	 	 Connected by 192.168.1.129
syncCounter: 50 and countCheck: 255 
50 message sent!
	 	 Connected by 192.168.1.80
syncCounter: 51 and countCheck: 51 
Reply received from robot # 80 
	 	 Connected by 192.168.1.81
syncCounter: 51 and countCheck: 51 
Reply received from robot # 81 
	 	 Connected by 192.168.1.106
syncCounter: 51 and countCheck: 255 
	 	 Connected by 192.168.1.103
syncCounter: 51 and countCheck: 255 
	 	 Connected by 192.168.1.129
syncCounter: 51 and countCheck: 255 
51 message sent!
	 	 Connected by 192.168.1.80
syncCounter: 52 and countCheck: 52 
Reply received from robot # 80 
	 	 Connected by 192.168.1.81
syncCounter: 52 and countCheck: 52 
Reply received from robot # 81 
	 	 Connected by 192.168.1.106
syncCounter: 52 and countCheck: 52 
Reply received from robot # 6 
	 	 Connected by 192.168.1.103
syncCounter: 52 and countCheck: 255 
52 message sent!
	 	 Connected by 192.168.1.80
syncCounter: 53 and countCheck: 53 
Reply received from robot # 80 
	 	 Connected by 192.168.1.106
syncCounter: 53 and countCheck: 53 
Reply received from robot # 6 
	 	 Connected by 192.168.1.81
syncCounter: 53 and countCheck: 53 
Reply received from robot # 81 
	 	 Connected by 192.168.1.139
syncCounter: 53 and countCheck: 255 
	 	 Connected by 192.168.1.103
syncCounter: 53 and countCheck: 255 
53 message sent!
	 	 Connected by 192.168.1.106
syncCounter: 54 and countCheck: 54 
Reply received from robot # 6 
	 	 Connected by 192.168.1.81
syncCounter: 54 and countCheck: 54 
Reply received from robot # 81 
	 	 Connected by 192.168.1.80
syncCounter: 54 and countCheck: 54 
Reply received from robot # 80 
	 	 Connected by 192.168.1.103
syncCounter: 54 and countCheck: 255 
54 message sent!
	 	 Connected by 192.168.1.103
syncCounter: 55 and countCheck: 55 
Reply received from robot # 3 
	 	 Connected by 192.168.1.81
syncCounter: 55 and countCheck: 55 
Reply received from robot # 81 
	 	 Connected by 192.168.1.80
syncCounter: 55 and countCheck: 55 
Reply received from robot # 80 
55 message sent!
	 	 Connected by 192.168.1.80
syncCounter: 56 and countCheck: 56 
Reply received from robot # 80 
	 	 Connected by 192.168.1.81
syncCounter: 56 and countCheck: 56 
Reply received from robot # 81 
	 	 Connected by 192.168.1.103
syncCounter: 56 and countCheck: 255 
56 message sent!
	 	 Connected by 192.168.1.103
syncCounter: 57 and countCheck: 57 
Reply received from robot # 3 
	 	 Connected by 192.168.1.81
syncCounter: 57 and countCheck: 57 
Reply received from robot # 81 
	 	 Connected by 192.168.1.80
syncCounter: 57 and countCheck: 57 
Reply received from robot # 80 
	 	 Connected by 192.168.1.139
syncCounter: 57 and countCheck: 255 
57 message sent!
	 	 Connected by 192.168.1.80
syncCounter: 58 and countCheck: 58 
Reply received from robot # 80 
	 	 Connected by 192.168.1.81
syncCounter: 58 and countCheck: 58 
Reply received from robot # 81 
	 	 Connected by 192.168.1.103
syncCounter: 58 and countCheck: 255 
58 message sent!
	 	 Connected by 192.168.1.81
syncCounter: 59 and countCheck: 59 
Reply received from robot # 81 
	 	 Connected by 192.168.1.80
syncCounter: 59 and countCheck: 59 
Reply received from robot # 80 
59 message sent!
	 	 Connected by 192.168.1.80
syncCounter: 60 and countCheck: 60 
Reply received from robot # 80 
	 	 Connected by 192.168.1.81
syncCounter: 60 and countCheck: 60 
Reply received from robot # 81 
	 	 Connected by 192.168.1.103
syncCounter: 60 and countCheck: 255 
60 message sent!
	 	 Connected by 192.168.1.81
syncCounter: 61 and countCheck: 61 
Reply received from robot # 81 
	 	 Connected by 192.168.1.103
syncCounter: 61 and countCheck: 61 
Reply received from robot # 3 
	 	 Connected by 192.168.1.80
syncCounter: 61 and countCheck: 61 
Reply received from robot # 80 
	 	 Connected by 192.168.1.138
syncCounter: 61 and countCheck: 255 
61 message sent!
	 	 Connected by 192.168.1.103
syncCounter: 62 and countCheck: 62 
Reply received from robot # 3 
	 	 Connected by 192.168.1.80
syncCounter: 62 and countCheck: 62 
Reply received from robot # 80 
	 	 Connected by 192.168.1.81
syncCounter: 62 and countCheck: 62 
Reply received from robot # 81 
62 message sent!
	 	 Connected by 192.168.1.81
syncCounter: 63 and countCheck: 63 
Reply received from robot # 81 
	 	 Connected by 192.168.1.103
syncCounter: 63 and countCheck: 63 
Reply received from robot # 3 
	 	 Connected by 192.168.1.80
syncCounter: 63 and countCheck: 63 
Reply received from robot # 80 
	 	 Connected by 192.168.1.106
syncCounter: 63 and countCheck: 255 
63 message sent!
	 	 Connected by 192.168.1.103
syncCounter: 64 and countCheck: 64 
Reply received from robot # 3 
	 	 Connected by 192.168.1.80
syncCounter: 64 and countCheck: 64 
Reply received from robot # 80 
	 	 Connected by 192.168.1.81
syncCounter: 64 and countCheck: 64 
Reply received from robot # 81 
	 	 Connected by 192.168.1.106
syncCounter: 64 and countCheck: 64 
Reply received from robot # 6 
	 	 Connected by 192.168.1.111
syncCounter: 64 and countCheck: 255 
64 message sent!
	 	 Connected by 192.168.1.103
syncCounter: 65 and countCheck: 65 
Reply received from robot # 3 
	 	 Connected by 192.168.1.106
syncCounter: 65 and countCheck: 65 
Reply received from robot # 6 
	 	 Connected by 192.168.1.81
syncCounter: 65 and countCheck: 65 
Reply received from robot # 81 
	 	 Connected by 192.168.1.80
syncCounter: 65 and countCheck: 65 
Reply received from robot # 80 
	 	 Connected by 192.168.1.138
syncCounter: 65 and countCheck: 255 
	 	 Connected by 192.168.1.129
syncCounter: 65 and countCheck: 255 
65 message sent!
	 	 Connected by 192.168.1.103
syncCounter: 66 and countCheck: 66 
Reply received from robot # 3 
	 	 Connected by 192.168.1.81
syncCounter: 66 and countCheck: 66 
Reply received from robot # 81 
	 	 Connected by 192.168.1.80
syncCounter: 66 and countCheck: 66 
Reply received from robot # 80 
	 	 Connected by 192.168.1.106
syncCounter: 66 and countCheck: 66 
Reply received from robot # 6 
66 message sent!
	 	 Connected by 192.168.1.103
syncCounter: 67 and countCheck: 67 
Reply received from robot # 3 
	 	 Connected by 192.168.1.80
syncCounter: 67 and countCheck: 67 
Reply received from robot # 80 
	 	 Connected by 192.168.1.81
syncCounter: 67 and countCheck: 67 
Reply received from robot # 81 
	 	 Connected by 192.168.1.106
syncCounter: 67 and countCheck: 67 
Reply received from robot # 6 
	 	 Connected by 192.168.1.106
syncCounter: 67 and countCheck: 255 
67 message sent!
	 	 Connected by 192.168.1.106
syncCounter: 68 and countCheck: 68 
Reply received from robot # 6 
	 	 Connected by 192.168.1.103
syncCounter: 68 and countCheck: 68 
Reply received from robot # 3 
	 	 Connected by 192.168.1.80
syncCounter: 68 and countCheck: 68 
Reply received from robot # 80 
	 	 Connected by 192.168.1.81
syncCounter: 68 and countCheck: 68 
Reply received from robot # 81 
68 message sent!
	 	 Connected by 192.168.1.81
syncCounter: 69 and countCheck: 69 
Reply received from robot # 81 
	 	 Connected by 192.168.1.106
syncCounter: 69 and countCheck: 69 
Reply received from robot # 6 
	 	 Connected by 192.168.1.80
syncCounter: 69 and countCheck: 69 
Reply received from robot # 80 
69 message sent!
	 	 Connected by 192.168.1.106
syncCounter: 70 and countCheck: 70 
Reply received from robot # 6 
	 	 Connected by 192.168.1.80
syncCounter: 70 and countCheck: 70 
Reply received from robot # 80 
	 	 Connected by 192.168.1.81
syncCounter: 70 and countCheck: 70 
Reply received from robot # 81 
70 message sent!
	 	 Connected by 192.168.1.80
syncCounter: 71 and countCheck: 71 
Reply received from robot # 80 
	 	 Connected by 192.168.1.81
syncCounter: 71 and countCheck: 71 
Reply received from robot # 81 
	 	 Connected by 192.168.1.106
syncCounter: 71 and countCheck: 71 
Reply received from robot # 6 
	 	 Connected by 192.168.1.103
syncCounter: 71 and countCheck: 255 
71 message sent!
	 	 Connected by 192.168.1.103
syncCounter: 72 and countCheck: 72 
Reply received from robot # 3 
	 	 Connected by 192.168.1.80
syncCounter: 72 and countCheck: 72 
Reply received from robot # 80 
	 	 Connected by 192.168.1.81
syncCounter: 72 and countCheck: 72 
Reply received from robot # 81 
	 	 Connected by 192.168.1.106
syncCounter: 72 and countCheck: 72 
Reply received from robot # 6 
72 message sent!
	 	 Connected by 192.168.1.81
syncCounter: 73 and countCheck: 73 
Reply received from robot # 81 
	 	 Connected by 192.168.1.106
syncCounter: 73 and countCheck: 73 
Reply received from robot # 6 
	 	 Connected by 192.168.1.80
syncCounter: 73 and countCheck: 73 
Reply received from robot # 80 
	 	 Connected by 192.168.1.139
syncCounter: 73 and countCheck: 255 
	 	 Connected by 192.168.1.103
syncCounter: 73 and countCheck: 255 
73 message sent!
	 	 Connected by 192.168.1.103
syncCounter: 74 and countCheck: 74 
Reply received from robot # 3 
	 	 Connected by 192.168.1.106
syncCounter: 74 and countCheck: 74 
Reply received from robot # 6 
	 	 Connected by 192.168.1.81
syncCounter: 74 and countCheck: 74 
Reply received from robot # 81 
	 	 Connected by 192.168.1.80
syncCounter: 74 and countCheck: 74 
Reply received from robot # 80 
74 message sent!
	 	 Connected by 192.168.1.103
syncCounter: 75 and countCheck: 75 
Reply received from robot # 3 
	 	 Connected by 192.168.1.81
syncCounter: 75 and countCheck: 75 
Reply received from robot # 81 
	 	 Connected by 192.168.1.80
syncCounter: 75 and countCheck: 75 
Reply received from robot # 80 
75 message sent!
	 	 Connected by 192.168.1.103
syncCounter: 76 and countCheck: 76 
Reply received from robot # 3 
	 	 Connected by 192.168.1.81
syncCounter: 76 and countCheck: 76 
Reply received from robot # 81 
	 	 Connected by 192.168.1.80
syncCounter: 76 and countCheck: 76 
Reply received from robot # 80 
	 	 Connected by 192.168.1.138
syncCounter: 76 and countCheck: 255 
76 message sent!
	 	 Connected by 192.168.1.103
syncCounter: 77 and countCheck: 77 
Reply received from robot # 3 
	 	 Connected by 192.168.1.81
syncCounter: 77 and countCheck: 77 
Reply received from robot # 81 
	 	 Connected by 192.168.1.80
syncCounter: 77 and countCheck: 77 
Reply received from robot # 80 
77 message sent!
	 	 Connected by 192.168.1.103
syncCounter: 78 and countCheck: 78 
Reply received from robot # 3 
	 	 Connected by 192.168.1.80
syncCounter: 78 and countCheck: 78 
Reply received from robot # 80 
	 	 Connected by 192.168.1.81
syncCounter: 78 and countCheck: 78 
Reply received from robot # 81 
78 message sent!
	 	 Connected by 192.168.1.81
syncCounter: 79 and countCheck: 79 
Reply received from robot # 81 
	 	 Connected by 192.168.1.80
syncCounter: 79 and countCheck: 79 
Reply received from robot # 80 
	 	 Connected by 192.168.1.103
syncCounter: 79 and countCheck: 255 
79 message sent!
	 	 Connected by 192.168.1.81
syncCounter: 80 and countCheck: 80 
Reply received from robot # 81 
	 	 Connected by 192.168.1.103
syncCounter: 80 and countCheck: 80 
Reply received from robot # 3 
	 	 Connected by 192.168.1.80
syncCounter: 80 and countCheck: 80 
Reply received from robot # 80 
80 message sent!
	 	 Connected by 192.168.1.103
syncCounter: 81 and countCheck: 81 
Reply received from robot # 3 
	 	 Connected by 192.168.1.81
syncCounter: 81 and countCheck: 81 
Reply received from robot # 81 
	 	 Connected by 192.168.1.80
syncCounter: 81 and countCheck: 81 
Reply received from robot # 80 
81 message sent!
	 	 Connected by 192.168.1.80
syncCounter: 82 and countCheck: 82 
Reply received from robot # 80 
	 	 Connected by 192.168.1.103
syncCounter: 82 and countCheck: 82 
Reply received from robot # 3 
	 	 Connected by 192.168.1.81
syncCounter: 82 and countCheck: 82 
Reply received from robot # 81 
	 	 Connected by 192.168.1.139
syncCounter: 82 and countCheck: 255 
82 message sent!
	 	 Connected by 192.168.1.81
syncCounter: 83 and countCheck: 83 
Reply received from robot # 81 
	 	 Connected by 192.168.1.103
syncCounter: 83 and countCheck: 83 
Reply received from robot # 3 
	 	 Connected by 192.168.1.80
syncCounter: 83 and countCheck: 83 
Reply received from robot # 80 
83 message sent!
	 	 Connected by 192.168.1.103
syncCounter: 84 and countCheck: 84 
Reply received from robot # 3 
	 	 Connected by 192.168.1.81
syncCounter: 84 and countCheck: 84 
Reply received from robot # 81 
	 	 Connected by 192.168.1.80
syncCounter: 84 and countCheck: 84 
Reply received from robot # 80 
84 message sent!
	 	 Connected by 192.168.1.103
syncCounter: 85 and countCheck: 85 
Reply received from robot # 3 
	 	 Connected by 192.168.1.81
syncCounter: 85 and countCheck: 85 
Reply received from robot # 81 
	 	 Connected by 192.168.1.80
syncCounter: 85 and countCheck: 85 
Reply received from robot # 80 
85 message sent!
	 	 Connected by 192.168.1.103
syncCounter: 86 and countCheck: 86 
Reply received from robot # 3 
	 	 Connected by 192.168.1.81
syncCounter: 86 and countCheck: 86 
Reply received from robot # 81 
	 	 Connected by 192.168.1.80
syncCounter: 86 and countCheck: 86 
Reply received from robot # 80 
	 	 Connected by 192.168.1.106
syncCounter: 86 and countCheck: 255 
86 message sent!
	 	 Connected by 192.168.1.103
syncCounter: 87 and countCheck: 87 
Reply received from robot # 3 
	 	 Connected by 192.168.1.81
syncCounter: 87 and countCheck: 87 
Reply received from robot # 81 
	 	 Connected by 192.168.1.80
syncCounter: 87 and countCheck: 87 
Reply received from robot # 80 
	 	 Connected by 192.168.1.106
syncCounter: 87 and countCheck: 87 
Reply received from robot # 6 
87 message sent!
	 	 Connected by 192.168.1.103
syncCounter: 88 and countCheck: 88 
Reply received from robot # 3 
	 	 Connected by 192.168.1.106
syncCounter: 88 and countCheck: 88 
Reply received from robot # 6 
	 	 Connected by 192.168.1.81
syncCounter: 88 and countCheck: 88 
Reply received from robot # 81 
	 	 Connected by 192.168.1.80
syncCounter: 88 and countCheck: 88 
Reply received from robot # 80 
88 message sent!
	 	 Connected by 192.168.1.103
syncCounter: 89 and countCheck: 89 
Reply received from robot # 3 
	 	 Connected by 192.168.1.80
syncCounter: 89 and countCheck: 89 
Reply received from robot # 80 
	 	 Connected by 192.168.1.106
syncCounter: 89 and countCheck: 89 
Reply received from robot # 6 
	 	 Connected by 192.168.1.81
syncCounter: 89 and countCheck: 89 
Reply received from robot # 81 
89 message sent!
	 	 Connected by 192.168.1.106
syncCounter: 90 and countCheck: 90 
Reply received from robot # 6 
	 	 Connected by 192.168.1.81
syncCounter: 90 and countCheck: 90 
Reply received from robot # 81 
	 	 Connected by 192.168.1.103
syncCounter: 90 and countCheck: 90 
Reply received from robot # 3 
	 	 Connected by 192.168.1.80
syncCounter: 90 and countCheck: 90 
Reply received from robot # 80 
90 message sent!
	 	 Connected by 192.168.1.103
syncCounter: 91 and countCheck: 91 
Reply received from robot # 3 
	 	 Connected by 192.168.1.106
syncCounter: 91 and countCheck: 91 
Reply received from robot # 6 
	 	 Connected by 192.168.1.81
syncCounter: 91 and countCheck: 91 
Reply received from robot # 81 
	 	 Connected by 192.168.1.80
syncCounter: 91 and countCheck: 91 
Reply received from robot # 80 
91 message sent!
	 	 Connected by 192.168.1.103
syncCounter: 92 and countCheck: 92 
Reply received from robot # 3 
	 	 Connected by 192.168.1.106
syncCounter: 92 and countCheck: 92 
Reply received from robot # 6 
	 	 Connected by 192.168.1.81
syncCounter: 92 and countCheck: 92 
Reply received from robot # 81 
	 	 Connected by 192.168.1.80
syncCounter: 92 and countCheck: 92 
Reply received from robot # 80 
92 message sent!
	 	 Connected by 192.168.1.106
syncCounter: 93 and countCheck: 93 
Reply received from robot # 6 
	 	 Connected by 192.168.1.103
syncCounter: 93 and countCheck: 93 
Reply received from robot # 3 
	 	 Connected by 192.168.1.81
syncCounter: 93 and countCheck: 93 
Reply received from robot # 81 
	 	 Connected by 192.168.1.80
syncCounter: 93 and countCheck: 93 
Reply received from robot # 80 
93 message sent!
	 	 Connected by 192.168.1.103
syncCounter: 94 and countCheck: 94 
Reply received from robot # 3 
	 	 Connected by 192.168.1.81
syncCounter: 94 and countCheck: 94 
Reply received from robot # 81 
	 	 Connected by 192.168.1.80
syncCounter: 94 and countCheck: 94 
Reply received from robot # 80 
94 message sent!
	 	 Connected by 192.168.1.103
syncCounter: 95 and countCheck: 95 
Reply received from robot # 3 
	 	 Connected by 192.168.1.81
syncCounter: 95 and countCheck: 95 
Reply received from robot # 81 
	 	 Connected by 192.168.1.80
syncCounter: 95 and countCheck: 95 
Reply received from robot # 80 
95 message sent!
	 	 Connected by 192.168.1.103
syncCounter: 96 and countCheck: 96 
Reply received from robot # 3 
	 	 Connected by 192.168.1.81
syncCounter: 96 and countCheck: 96 
Reply received from robot # 81 
	 	 Connected by 192.168.1.80
syncCounter: 96 and countCheck: 96 
Reply received from robot # 80 
96 message sent!
	 	 Connected by 192.168.1.103
syncCounter: 97 and countCheck: 97 
Reply received from robot # 3 
	 	 Connected by 192.168.1.81
syncCounter: 97 and countCheck: 97 
Reply received from robot # 81 
	 	 Connected by 192.168.1.80
syncCounter: 97 and countCheck: 97 
Reply received from robot # 80 
97 message sent!
	 	 Connected by 192.168.1.103
syncCounter: 98 and countCheck: 98 
Reply received from robot # 3 
	 	 Connected by 192.168.1.81
syncCounter: 98 and countCheck: 98 
Reply received from robot # 81 
	 	 Connected by 192.168.1.80
syncCounter: 98 and countCheck: 98 
Reply received from robot # 80 
98 message sent!
	 	 Connected by 192.168.1.103
syncCounter: 99 and countCheck: 99 
Reply received from robot # 3 
	 	 Connected by 192.168.1.80
syncCounter: 99 and countCheck: 99 
Reply received from robot # 80 
	 	 Connected by 192.168.1.81
syncCounter: 99 and countCheck: 99 
Reply received from robot # 81 
99 message sent!
	 	 Connected by 192.168.1.103
syncCounter: 100 and countCheck: 100 
Reply received from robot # 3 
	 	 Connected by 192.168.1.80
syncCounter: 100 and countCheck: 100 
Reply received from robot # 80 
	 	 Connected by 192.168.1.81
syncCounter: 100 and countCheck: 100 
Reply received from robot # 81 
100 message sent!
	 	 Connected by 192.168.1.103
syncCounter: 101 and countCheck: 101 
Reply received from robot # 3 
	 	 Connected by 192.168.1.80
syncCounter: 101 and countCheck: 101 
Reply received from robot # 80 
	 	 Connected by 192.168.1.81
syncCounter: 101 and countCheck: 101 
Reply received from robot # 81 
	 	 Connected by 192.168.1.139
syncCounter: 101 and countCheck: 255 
101 message sent!
	 	 Connected by 192.168.1.103
syncCounter: 102 and countCheck: 102 
Reply received from robot # 3 
	 	 Connected by 192.168.1.80
syncCounter: 102 and countCheck: 102 
Reply received from robot # 80 
	 	 Connected by 192.168.1.81
syncCounter: 102 and countCheck: 102 
Reply received from robot # 81 
102 message sent!
	 	 Connected by 192.168.1.81
syncCounter: 103 and countCheck: 103 
Reply received from robot # 81 
	 	 Connected by 192.168.1.80
syncCounter: 103 and countCheck: 103 
Reply received from robot # 80 
	 	 Connected by 192.168.1.103
syncCounter: 103 and countCheck: 103 
Reply received from robot # 3 
103 message sent!
	 	 Connected by 192.168.1.81
syncCounter: 104 and countCheck: 104 
Reply received from robot # 81 
	 	 Connected by 192.168.1.80
syncCounter: 104 and countCheck: 104 
Reply received from robot # 80 
	 	 Connected by 192.168.1.103
syncCounter: 104 and countCheck: 255 
104 message sent!
	 	 Connected by 192.168.1.103
syncCounter: 105 and countCheck: 105 
Reply received from robot # 3 
	 	 Connected by 192.168.1.81
syncCounter: 105 and countCheck: 105 
Reply received from robot # 81 
	 	 Connected by 192.168.1.80
syncCounter: 105 and countCheck: 105 
Reply received from robot # 80 
105 message sent!
	 	 Connected by 192.168.1.103
syncCounter: 106 and countCheck: 106 
Reply received from robot # 3 
	 	 Connected by 192.168.1.81
syncCounter: 106 and countCheck: 106 
Reply received from robot # 81 
	 	 Connected by 192.168.1.80
syncCounter: 106 and countCheck: 106 
Reply received from robot # 80 
106 message sent!
	 	 Connected by 192.168.1.103
syncCounter: 107 and countCheck: 107 
Reply received from robot # 3 
	 	 Connected by 192.168.1.80
syncCounter: 107 and countCheck: 107 
Reply received from robot # 80 
	 	 Connected by 192.168.1.81
syncCounter: 107 and countCheck: 107 
Reply received from robot # 81 
107 message sent!
	 	 Connected by 192.168.1.103
syncCounter: 108 and countCheck: 108 
Reply received from robot # 3 
	 	 Connected by 192.168.1.80
syncCounter: 108 and countCheck: 108 
Reply received from robot # 80 
	 	 Connected by 192.168.1.81
syncCounter: 108 and countCheck: 108 
Reply received from robot # 81 
108 message sent!
	 	 Connected by 192.168.1.103
syncCounter: 109 and countCheck: 109 
Reply received from robot # 3 
	 	 Connected by 192.168.1.80
syncCounter: 109 and countCheck: 109 
Reply received from robot # 80 
	 	 Connected by 192.168.1.81
syncCounter: 109 and countCheck: 109 
Reply received from robot # 81 
	 	 Connected by 192.168.1.138
syncCounter: 109 and countCheck: 255 
109 message sent!
	 	 Connected by 192.168.1.81
syncCounter: 110 and countCheck: 110 
Reply received from robot # 81 
	 	 Connected by 192.168.1.103
syncCounter: 110 and countCheck: 110 
Reply received from robot # 3 
	 	 Connected by 192.168.1.80
syncCounter: 110 and countCheck: 110 
Reply received from robot # 80 
110 message sent!
	 	 Connected by 192.168.1.80
syncCounter: 111 and countCheck: 111 
Reply received from robot # 80 
	 	 Connected by 192.168.1.103
syncCounter: 111 and countCheck: 111 
Reply received from robot # 3 
	 	 Connected by 192.168.1.81
syncCounter: 111 and countCheck: 111 
Reply received from robot # 81 
111 message sent!
	 	 Connected by 192.168.1.103
syncCounter: 112 and countCheck: 112 
Reply received from robot # 3 
	 	 Connected by 192.168.1.80
syncCounter: 112 and countCheck: 112 
Reply received from robot # 80 
	 	 Connected by 192.168.1.81
syncCounter: 112 and countCheck: 112 
Reply received from robot # 81 
112 message sent!
	 	 Connected by 192.168.1.103
syncCounter: 113 and countCheck: 113 
Reply received from robot # 3 
	 	 Connected by 192.168.1.80
syncCounter: 113 and countCheck: 113 
Reply received from robot # 80 
	 	 Connected by 192.168.1.81
syncCounter: 113 and countCheck: 113 
Reply received from robot # 81 
113 message sent!
	 	 Connected by 192.168.1.103
syncCounter: 114 and countCheck: 114 
Reply received from robot # 3 
	 	 Connected by 192.168.1.80
syncCounter: 114 and countCheck: 114 
Reply received from robot # 80 
	 	 Connected by 192.168.1.81
syncCounter: 114 and countCheck: 114 
Reply received from robot # 81 
114 message sent!
	 	 Connected by 192.168.1.80
syncCounter: 115 and countCheck: 115 
Reply received from robot # 80 
	 	 Connected by 192.168.1.103
syncCounter: 115 and countCheck: 115 
Reply received from robot # 3 
	 	 Connected by 192.168.1.81
syncCounter: 115 and countCheck: 115 
Reply received from robot # 81 
	 	 Connected by 192.168.1.106
syncCounter: 115 and countCheck: 255 
115 message sent!
	 	 Connected by 192.168.1.81
syncCounter: 116 and countCheck: 116 
Reply received from robot # 81 
	 	 Connected by 192.168.1.103
syncCounter: 116 and countCheck: 116 
Reply received from robot # 3 
	 	 Connected by 192.168.1.106
syncCounter: 116 and countCheck: 116 
Reply received from robot # 6 
	 	 Connected by 192.168.1.80
syncCounter: 116 and countCheck: 116 
Reply received from robot # 80 
116 message sent!
	 	 Connected by 192.168.1.103
syncCounter: 117 and countCheck: 117 
Reply received from robot # 3 
	 	 Connected by 192.168.1.81
syncCounter: 117 and countCheck: 117 
Reply received from robot # 81 
	 	 Connected by 192.168.1.80
syncCounter: 117 and countCheck: 117 
Reply received from robot # 80 
	 	 Connected by 192.168.1.106
syncCounter: 117 and countCheck: 255 
117 message sent!
	 	 Connected by 192.168.1.103
syncCounter: 118 and countCheck: 118 
Reply received from robot # 3 
	 	 Connected by 192.168.1.106
syncCounter: 118 and countCheck: 118 
Reply received from robot # 6 
	 	 Connected by 192.168.1.81
syncCounter: 118 and countCheck: 118 
Reply received from robot # 81 
	 	 Connected by 192.168.1.80
syncCounter: 118 and countCheck: 118 
Reply received from robot # 80 
118 message sent!
	 	 Connected by 192.168.1.103
syncCounter: 119 and countCheck: 119 
Reply received from robot # 3 
	 	 Connected by 192.168.1.106
syncCounter: 119 and countCheck: 119 
Reply received from robot # 6 
	 	 Connected by 192.168.1.81
syncCounter: 119 and countCheck: 119 
Reply received from robot # 81 
	 	 Connected by 192.168.1.106
syncCounter: 119 and countCheck: 255 
119 message sent!
	 	 Connected by 192.168.1.103
syncCounter: 120 and countCheck: 120 
Reply received from robot # 3 
	 	 Connected by 192.168.1.106
syncCounter: 120 and countCheck: 120 
Reply received from robot # 6 
	 	 Connected by 192.168.1.81
syncCounter: 120 and countCheck: 120 
Reply received from robot # 81 
	 	 Connected by 192.168.1.80
syncCounter: 120 and countCheck: 120 
Reply received from robot # 80 
120 message sent!
	 	 Connected by 192.168.1.81
syncCounter: 121 and countCheck: 121 
Reply received from robot # 81 
	 	 Connected by 192.168.1.103
syncCounter: 121 and countCheck: 121 
Reply received from robot # 3 
	 	 Connected by 192.168.1.80
syncCounter: 121 and countCheck: 121 
Reply received from robot # 80 
	 	 Connected by 192.168.1.106
syncCounter: 121 and countCheck: 255 
121 message sent!
	 	 Connected by 192.168.1.103
syncCounter: 122 and countCheck: 122 
Reply received from robot # 3 
	 	 Connected by 192.168.1.81
syncCounter: 122 and countCheck: 122 
Reply received from robot # 81 
	 	 Connected by 192.168.1.80
syncCounter: 122 and countCheck: 122 
Reply received from robot # 80 
	 	 Connected by 192.168.1.106
syncCounter: 122 and countCheck: 122 
Reply received from robot # 6 
122 message sent!
	 	 Connected by 192.168.1.81
syncCounter: 123 and countCheck: 123 
Reply received from robot # 81 
	 	 Connected by 192.168.1.80
syncCounter: 123 and countCheck: 123 
Reply received from robot # 80 
	 	 Connected by 192.168.1.103
syncCounter: 123 and countCheck: 123 
Reply received from robot # 3 
	 	 Connected by 192.168.1.106
syncCounter: 123 and countCheck: 123 
Reply received from robot # 6 
123 message sent!
	 	 Connected by 192.168.1.81
syncCounter: 124 and countCheck: 124 
Reply received from robot # 81 
	 	 Connected by 192.168.1.80
syncCounter: 124 and countCheck: 124 
Reply received from robot # 80 
	 	 Connected by 192.168.1.103
syncCounter: 124 and countCheck: 124 
Reply received from robot # 3 
	 	 Connected by 192.168.1.106
syncCounter: 124 and countCheck: 124 
Reply received from robot # 6 
124 message sent!
	 	 Connected by 192.168.1.106
syncCounter: 125 and countCheck: 125 
Reply received from robot # 6 
	 	 Connected by 192.168.1.103
syncCounter: 125 and countCheck: 125 
Reply received from robot # 3 
	 	 Connected by 192.168.1.81
syncCounter: 125 and countCheck: 125 
Reply received from robot # 81 
	 	 Connected by 192.168.1.80
syncCounter: 125 and countCheck: 125 
Reply received from robot # 80 
125 message sent!
	 	 Connected by 192.168.1.103
syncCounter: 126 and countCheck: 126 
Reply received from robot # 3 
	 	 Connected by 192.168.1.81
syncCounter: 126 and countCheck: 126 
Reply received from robot # 81 
	 	 Connected by 192.168.1.80
syncCounter: 126 and countCheck: 126 
Reply received from robot # 80 
126 message sent!
	 	 Connected by 192.168.1.103
syncCounter: 127 and countCheck: 127 
Reply received from robot # 3 
	 	 Connected by 192.168.1.81
syncCounter: 127 and countCheck: 127 
Reply received from robot # 81 
	 	 Connected by 192.168.1.80
syncCounter: 127 and countCheck: 127 
Reply received from robot # 80 
127 message sent!
	 	 Connected by 192.168.1.80
syncCounter: 128 and countCheck: 128 
Reply received from robot # 80 
	 	 Connected by 192.168.1.81
syncCounter: 128 and countCheck: 128 
Reply received from robot # 81 
	 	 Connected by 192.168.1.121
syncCounter: 128 and countCheck: 255 
128 message sent!
	 	 Connected by 192.168.1.103
syncCounter: 129 and countCheck: 129 
Reply received from robot # 3 
	 	 Connected by 192.168.1.80
syncCounter: 129 and countCheck: 129 
Reply received from robot # 80 
	 	 Connected by 192.168.1.81
syncCounter: 129 and countCheck: 129 
Reply received from robot # 81 
	 	 Connected by 192.168.1.106
syncCounter: 129 and countCheck: 255 
129 message sent!
	 	 Connected by 192.168.1.80
syncCounter: 130 and countCheck: 130 
Reply received from robot # 80 
	 	 Connected by 192.168.1.106
syncCounter: 130 and countCheck: 130 
Reply received from robot # 6 
	 	 Connected by 192.168.1.81
syncCounter: 130 and countCheck: 130 
Reply received from robot # 81 
	 	 Connected by 192.168.1.103
syncCounter: 130 and countCheck: 130 
Reply received from robot # 3 
130 message sent!
	 	 Connected by 192.168.1.80
syncCounter: 131 and countCheck: 131 
Reply received from robot # 80 
	 	 Connected by 192.168.1.103
syncCounter: 131 and countCheck: 131 
Reply received from robot # 3 
	 	 Connected by 192.168.1.81
syncCounter: 131 and countCheck: 131 
Reply received from robot # 81 
	 	 Connected by 192.168.1.106
syncCounter: 131 and countCheck: 131 
Reply received from robot # 6 
131 message sent!
	 	 Connected by 192.168.1.106
syncCounter: 132 and countCheck: 132 
Reply received from robot # 6 
	 	 Connected by 192.168.1.80
syncCounter: 132 and countCheck: 132 
Reply received from robot # 80 
	 	 Connected by 192.168.1.81
syncCounter: 132 and countCheck: 132 
Reply received from robot # 81 
	 	 Connected by 192.168.1.103
syncCounter: 132 and countCheck: 132 
Reply received from robot # 3 
132 message sent!
	 	 Connected by 192.168.1.103
syncCounter: 133 and countCheck: 133 
Reply received from robot # 3 
	 	 Connected by 192.168.1.106
syncCounter: 133 and countCheck: 133 
Reply received from robot # 6 
	 	 Connected by 192.168.1.81
syncCounter: 133 and countCheck: 133 
Reply received from robot # 81 
	 	 Connected by 192.168.1.80
syncCounter: 133 and countCheck: 133 
Reply received from robot # 80 
133 message sent!
	 	 Connected by 192.168.1.103
syncCounter: 134 and countCheck: 134 
Reply received from robot # 3 
	 	 Connected by 192.168.1.80
syncCounter: 134 and countCheck: 134 
Reply received from robot # 80 
	 	 Connected by 192.168.1.81
syncCounter: 134 and countCheck: 134 
Reply received from robot # 81 
	 	 Connected by 192.168.1.106
syncCounter: 134 and countCheck: 134 
Reply received from robot # 6 
134 message sent!
	 	 Connected by 192.168.1.103
syncCounter: 135 and countCheck: 135 
Reply received from robot # 3 
	 	 Connected by 192.168.1.81
syncCounter: 135 and countCheck: 135 
Reply received from robot # 81 
	 	 Connected by 192.168.1.80
syncCounter: 135 and countCheck: 135 
Reply received from robot # 80 
	 	 Connected by 192.168.1.106
syncCounter: 135 and countCheck: 135 
Reply received from robot # 6 
	 	 Connected by 192.168.1.103
syncCounter: 135 and countCheck: 255 
135 message sent!
	 	 Connected by 192.168.1.103
syncCounter: 136 and countCheck: 136 
Reply received from robot # 3 
	 	 Connected by 192.168.1.80
syncCounter: 136 and countCheck: 136 
Reply received from robot # 80 
	 	 Connected by 192.168.1.81
syncCounter: 136 and countCheck: 136 
Reply received from robot # 81 
	 	 Connected by 192.168.1.106
syncCounter: 136 and countCheck: 136 
Reply received from robot # 6 
136 message sent!
	 	 Connected by 192.168.1.103
syncCounter: 137 and countCheck: 137 
Reply received from robot # 3 
	 	 Connected by 192.168.1.106
syncCounter: 137 and countCheck: 137 
Reply received from robot # 6 
	 	 Connected by 192.168.1.80
syncCounter: 137 and countCheck: 137 
Reply received from robot # 80 
	 	 Connected by 192.168.1.81
syncCounter: 137 and countCheck: 137 
Reply received from robot # 81 
137 message sent!
	 	 Connected by 192.168.1.81
syncCounter: 138 and countCheck: 138 
Reply received from robot # 81 
	 	 Connected by 192.168.1.80
syncCounter: 138 and countCheck: 138 
Reply received from robot # 80 
	 	 Connected by 192.168.1.106
syncCounter: 138 and countCheck: 138 
Reply received from robot # 6 
	 	 Connected by 192.168.1.103
syncCounter: 138 and countCheck: 138 
Reply received from robot # 3 
138 message sent!
	 	 Connected by 192.168.1.103
syncCounter: 139 and countCheck: 139 
Reply received from robot # 3 
	 	 Connected by 192.168.1.81
syncCounter: 139 and countCheck: 139 
Reply received from robot # 81 
	 	 Connected by 192.168.1.80
syncCounter: 139 and countCheck: 139 
Reply received from robot # 80 
	 	 Connected by 192.168.1.106
syncCounter: 139 and countCheck: 139 
Reply received from robot # 6 
139 message sent!
	 	 Connected by 192.168.1.106
syncCounter: 140 and countCheck: 140 
Reply received from robot # 6 
	 	 Connected by 192.168.1.103
syncCounter: 140 and countCheck: 140 
Reply received from robot # 3 
	 	 Connected by 192.168.1.80
syncCounter: 140 and countCheck: 140 
Reply received from robot # 80 
	 	 Connected by 192.168.1.81
syncCounter: 140 and countCheck: 140 
Reply received from robot # 81 
140 message sent!
	 	 Connected by 192.168.1.103
syncCounter: 141 and countCheck: 141 
Reply received from robot # 3 
	 	 Connected by 192.168.1.81
syncCounter: 141 and countCheck: 141 
Reply received from robot # 81 
141 message sent!
	 	 Connected by 192.168.1.103
syncCounter: 142 and countCheck: 142 
Reply received from robot # 3 
	 	 Connected by 192.168.1.81
syncCounter: 142 and countCheck: 142 
Reply received from robot # 81 
	 	 Connected by 192.168.1.80
syncCounter: 142 and countCheck: 142 
Reply received from robot # 80 
142 message sent!
	 	 Connected by 192.168.1.103
syncCounter: 143 and countCheck: 143 
Reply received from robot # 3 
	 	 Connected by 192.168.1.80
syncCounter: 143 and countCheck: 143 
Reply received from robot # 80 
	 	 Connected by 192.168.1.81
syncCounter: 143 and countCheck: 143 
Reply received from robot # 81 
143 message sent!
	 	 Connected by 192.168.1.80
syncCounter: 144 and countCheck: 144 
Reply received from robot # 80 
	 	 Connected by 192.168.1.81
syncCounter: 144 and countCheck: 144 
Reply received from robot # 81 
	 	 Connected by 192.168.1.103
syncCounter: 144 and countCheck: 144 
Reply received from robot # 3 
144 message sent!
	 	 Connected by 192.168.1.103
syncCounter: 145 and countCheck: 145 
Reply received from robot # 3 
	 	 Connected by 192.168.1.80
syncCounter: 145 and countCheck: 145 
Reply received from robot # 80 
	 	 Connected by 192.168.1.81
syncCounter: 145 and countCheck: 145 
Reply received from robot # 81 
145 message sent!
	 	 Connected by 192.168.1.103
syncCounter: 146 and countCheck: 146 
Reply received from robot # 3 
	 	 Connected by 192.168.1.80
syncCounter: 146 and countCheck: 146 
Reply received from robot # 80 
	 	 Connected by 192.168.1.81
syncCounter: 146 and countCheck: 146 
Reply received from robot # 81 
	 	 Connected by 192.168.1.138
syncCounter: 146 and countCheck: 255 
