1 message sent!
	 	 Connected by 192.168.1.103
syncCounter: 2 and countCheck: 2 
Reply received from robot # 3 
	 	 Connected by 192.168.1.105
syncCounter: 2 and countCheck: 2 
Reply received from robot # 5 
	 	 Connected by 192.168.1.107
syncCounter: 2 and countCheck: 2 
Reply received from robot # 7 
	 	 Connected by 192.168.1.102
syncCounter: 2 and countCheck: 2 
Reply received from robot # 2 
	 	 Connected by 192.168.1.106
syncCounter: 2 and countCheck: 2 
Reply received from robot # 6 
	 	 Connected by 192.168.1.81
syncCounter: 2 and countCheck: 2 
Reply received from robot # 81 
	 	 Connected by 192.168.1.101
syncCounter: 2 and countCheck: 2 
Reply received from robot # 1 
	 	 Connected by 192.168.1.80
syncCounter: 2 and countCheck: 2 
Reply received from robot # 80 
	 	 Connected by 192.168.1.108
syncCounter: 2 and countCheck: 2 
Reply received from robot # 8 
	 	 Connected by 192.168.1.104
syncCounter: 2 and countCheck: 2 
Reply received from robot # 4 
WE DID IT!!! 2018-12-07 23:49:42.071055
