
***********Getting IO: 192.168.1.98
***********Robot Message Tuple(128, 127)

***********Getting IO: 192.168.1.98
***********Robot Message Tuple(128, 127)

***********Getting IO: 192.168.1.98
***********Robot Message Tuple(128, 127)

***********Getting IO: 192.168.1.98
***********Robot Message Tuple(128, 127)

***********Getting IO: 192.168.1.98
***********Robot Message Tuple(128, 127)

***********Getting IO: 192.168.1.104
***********Robot Message Tuple(2, 140508)

    Hit: 140508 from robot: 4
***********Getting IO: 192.168.1.98
***********Robot Message Tuple(128, 127)

***********Getting IO: 192.168.1.98
***********Robot Message Tuple(128, 127)

***********Getting IO: 192.168.1.98
***********Robot Message Tuple(128, 127)

***********Getting IO: 192.168.1.104
***********Robot Message Tuple(2, 143509)

    Hit: 143509 from robot: 4
***********Getting IO: 192.168.1.98
***********Robot Message Tuple(128, 127)

***********Getting IO: 192.168.1.98
***********Robot Message Tuple(128, 127)

***********Getting IO: 192.168.1.98
***********Robot Message Tuple(128, 127)

***********Getting IO: 192.168.1.104
***********Robot Message Tuple(2, 146508)

    Hit: 146508 from robot: 4
***********Getting IO: 192.168.1.98
***********Robot Message Tuple(128, 127)

***********Getting IO: 192.168.1.98
***********Robot Message Tuple(128, 127)

***********Getting IO: 192.168.1.98
***********Robot Message Tuple(128, 127)

***********Getting IO: 192.168.1.104
***********Robot Message Tuple(2, 149508)

    Hit: 149508 from robot: 4
***********Getting IO: 192.168.1.98
***********Robot Message Tuple(128, 127)

***********Getting IO: 192.168.1.98
***********Robot Message Tuple(128, 127)

***********Getting IO: 192.168.1.98
***********Robot Message Tuple(128, 127)

***********Getting IO: 192.168.1.98
***********Robot Message Tuple(128, 127)

***********Getting IO: 192.168.1.98
***********Robot Message Tuple(128, 127)

***********Getting IO: 192.168.1.98
***********Robot Message Tuple(128, 127)

***********Getting IO: 192.168.1.98
***********Robot Message Tuple(128, 127)

***********Getting IO: 192.168.1.98
***********Robot Message Tuple(128, 127)

***********Getting IO: 192.168.1.98
***********Robot Message Tuple(128, 127)

***********Getting IO: 192.168.1.98
***********Robot Message Tuple(128, 127)

***********Getting IO: 192.168.1.98
***********Robot Message Tuple(128, 127)

***********Getting IO: 192.168.1.98
***********Robot Message Tuple(128, 127)

***********Getting IO: 192.168.1.98
***********Robot Message Tuple(128, 127)

***********Getting IO: 192.168.1.98
***********Robot Message Tuple(128, 127)

***********Getting IO: 192.168.1.98
***********Robot Message Tuple(128, 127)

***********Getting IO: 192.168.1.98
***********Robot Message Tuple(128, 127)

***********Getting IO: 192.168.1.98
***********Robot Message Tuple(128, 127)

***********Getting IO: 192.168.1.98
***********Robot Message Tuple(128, 127)

***********Getting IO: 192.168.1.104
***********Robot Message Tuple(2, 168586)

***********Getting IO: 192.168.1.98
***********Robot Message Tuple(128, 127)

    Hit: 168586 from robot: 4
***********Getting IO: 192.168.1.98
***********Robot Message Tuple(128, 127)

***********Getting IO: 192.168.1.98
***********Robot Message Tuple(128, 127)

***********Getting IO: 192.168.1.98
***********Robot Message Tuple(128, 127)

***********Getting IO: 192.168.1.98
***********Robot Message Tuple(128, 127)

***********Getting IO: 192.168.1.98
***********Robot Message Tuple(128, 127)

***********Getting IO: 192.168.1.98
***********Robot Message Tuple(128, 127)

***********Getting IO: 192.168.1.98
***********Robot Message Tuple(128, 127)

***********Getting IO: 192.168.1.98
***********Robot Message Tuple(128, 127)

***********Getting IO: 192.168.1.98
***********Robot Message Tuple(128, 127)

***********Getting IO: 192.168.1.98
***********Robot Message Tuple(128, 127)

***********Getting IO: 192.168.1.98
***********Robot Message Tuple(128, 127)

***********Getting IO: 192.168.1.98
***********Robot Message Tuple(128, 127)

***********Getting IO: 192.168.1.98
***********Robot Message Tuple(128, 127)

***********Getting IO: 192.168.1.98
***********Robot Message Tuple(128, 127)

***********Getting IO: 192.168.1.98
***********Robot Message Tuple(128, 127)

***********Getting IO: 192.168.1.98
***********Robot Message Tuple(128, 127)

***********Getting IO: 192.168.1.98
***********Robot Message Tuple(128, 127)

***********Getting IO: 192.168.1.98
***********Robot Message Tuple(128, 127)

***********Getting IO: 192.168.1.98
***********Robot Message Tuple(128, 127)

***********Getting IO: 192.168.1.98
***********Robot Message Tuple(128, 127)

***********Getting IO: 192.168.1.98
***********Robot Message Tuple(128, 127)

***********Getting IO: 192.168.1.98
***********Robot Message Tuple(128, 127)

***********Getting IO: 192.168.1.98
***********Robot Message Tuple(128, 127)

***********Getting IO: 192.168.1.98
***********Robot Message Tuple(128, 127)

***********Getting IO: 192.168.1.98
***********Robot Message Tuple(128, 127)

***********Getting IO: 192.168.1.98
***********Robot Message Tuple(128, 127)

***********Getting IO: 192.168.1.98
***********Robot Message Tuple(128, 127)

***********Getting IO: 192.168.1.98
***********Robot Message Tuple(128, 127)

***********Getting IO: 192.168.1.98
***********Robot Message Tuple(128, 127)

***********Getting IO: 192.168.1.98
***********Robot Message Tuple(128, 127)

***********Getting IO: 192.168.1.98
***********Robot Message Tuple(128, 127)

***********Getting IO: 192.168.1.98
***********Robot Message Tuple(128, 127)

***********Getting IO: 192.168.1.98
***********Robot Message Tuple(128, 127)

***********Getting IO: 192.168.1.98
***********Robot Message Tuple(128, 127)

***********Getting IO: 192.168.1.98
***********Robot Message Tuple(128, 127)

***********Getting IO: 192.168.1.98
***********Robot Message Tuple(128, 127)

***********Getting IO: 192.168.1.98
***********Robot Message Tuple(128, 127)

***********Getting IO: 192.168.1.98
***********Robot Message Tuple(128, 127)

***********Getting IO: 192.168.1.98
***********Robot Message Tuple(128, 127)

***********Getting IO: 192.168.1.98
***********Robot Message Tuple(128, 127)

***********Getting IO: 192.168.1.98
***********Robot Message Tuple(128, 127)

***********Getting IO: 192.168.1.98
***********Robot Message Tuple(128, 127)

***********Getting IO: 192.168.1.98
***********Robot Message Tuple(128, 127)

***********Getting IO: 192.168.1.98
***********Robot Message Tuple(128, 127)

***********Getting IO: 192.168.1.98
***********Robot Message Tuple(128, 127)

***********Getting IO: 192.168.1.98
***********Robot Message Tuple(128, 127)

***********Getting IO: 192.168.1.98
***********Robot Message Tuple(128, 127)

***********Getting IO: 192.168.1.98
***********Robot Message Tuple(128, 127)

***********Getting IO: 192.168.1.98
***********Robot Message Tuple(128, 127)

***********Getting IO: 192.168.1.98
***********Robot Message Tuple(128, 127)

***********Getting IO: 192.168.1.98
***********Robot Message Tuple(128, 127)

***********Getting IO: 192.168.1.98
***********Robot Message Tuple(128, 127)

***********Getting IO: 192.168.1.98
***********Robot Message Tuple(128, 127)

***********Getting IO: 192.168.1.98
***********Robot Message Tuple(128, 127)

***********Getting IO: 192.168.1.98
***********Robot Message Tuple(128, 127)

***********Getting IO: 192.168.1.98
***********Robot Message Tuple(128, 127)

***********Getting IO: 192.168.1.98
***********Robot Message Tuple(128, 127)

***********Getting IO: 192.168.1.98
***********Robot Message Tuple(128, 127)

***********Getting IO: 192.168.1.98
***********Robot Message Tuple(128, 127)

***********Getting IO: 192.168.1.98
***********Robot Message Tuple(128, 127)

***********Getting IO: 192.168.1.98
***********Robot Message Tuple(128, 127)

***********Getting IO: 192.168.1.98
***********Robot Message Tuple(128, 127)

***********Getting IO: 192.168.1.98
***********Robot Message Tuple(128, 127)

***********Getting IO: 192.168.1.98
***********Robot Message Tuple(128, 127)

***********Getting IO: 192.168.1.98
***********Robot Message Tuple(128, 127)

***********Getting IO: 192.168.1.98
***********Robot Message Tuple(128, 127)

***********Getting IO: 192.168.1.98
***********Robot Message Tuple(128, 127)

***********Getting IO: 192.168.1.98
***********Robot Message Tuple(128, 127)

***********Getting IO: 192.168.1.98
***********Robot Message Tuple(128, 127)

***********Getting IO: 192.168.1.98
***********Robot Message Tuple(128, 127)

***********Getting IO: 192.168.1.98
***********Robot Message Tuple(128, 127)

***********Getting IO: 192.168.1.98
***********Robot Message Tuple(128, 127)

***********Getting IO: 192.168.1.98
***********Robot Message Tuple(128, 127)

***********Getting IO: 192.168.1.98
***********Robot Message Tuple(128, 127)

***********Getting IO: 192.168.1.98
***********Robot Message Tuple(128, 127)

***********Getting IO: 192.168.1.98
***********Robot Message Tuple(128, 127)

***********Getting IO: 192.168.1.98
***********Robot Message Tuple(128, 127)

***********Getting IO: 192.168.1.98
***********Robot Message Tuple(128, 127)

***********Getting IO: 192.168.1.98
***********Robot Message Tuple(128, 127)

***********Getting IO: 192.168.1.98
***********Robot Message Tuple(128, 127)

***********Getting IO: 192.168.1.98
***********Robot Message Tuple(128, 127)

***********Getting IO: 192.168.1.98
***********Robot Message Tuple(128, 127)

***********Getting IO: 192.168.1.98
***********Robot Message Tuple(128, 127)

***********Getting IO: 192.168.1.98
***********Robot Message Tuple(128, 127)

***********Getting IO: 192.168.1.98
***********Robot Message Tuple(128, 127)

***********Getting IO: 192.168.1.98
***********Robot Message Tuple(128, 127)

***********Getting IO: 192.168.1.98
***********Robot Message Tuple(128, 127)

***********Getting IO: 192.168.1.98
***********Robot Message Tuple(128, 127)

***********Getting IO: 192.168.1.98
***********Robot Message Tuple(128, 127)

***********Getting IO: 192.168.1.98
***********Robot Message Tuple(128, 127)

***********Getting IO: 192.168.1.98
***********Robot Message Tuple(128, 127)

***********Getting IO: 192.168.1.98
***********Robot Message Tuple(128, 127)

***********Getting IO: 192.168.1.98
***********Robot Message Tuple(128, 127)

***********Getting IO: 192.168.1.98
***********Robot Message Tuple(128, 127)

***********Getting IO: 192.168.1.98
***********Robot Message Tuple(128, 127)

***********Getting IO: 192.168.1.98
***********Robot Message Tuple(128, 127)

***********Getting IO: 192.168.1.98
***********Robot Message Tuple(128, 127)

***********Getting IO: 192.168.1.98
***********Robot Message Tuple(128, 127)
