
***********Getting IO: 192.168.1.108
***********Robot Message Tuple(1, 162400)

Was Hit: 162400 from robot: 8
***********Getting IO: 192.168.1.108
***********Robot Message Tuple(1, 162736)

Was Hit: 162736 from robot: 8
***********Getting IO: 192.168.1.108
***********Robot Message Tuple(2, 165900)

    Hit: 165900 from robot: 8
***********Getting IO: 192.168.1.108
***********Robot Message Tuple(2, 166252)

    Hit: 166252 from robot: 8
***********Getting IO: 192.168.1.108
***********Robot Message Tuple(2, 166722)

    Hit: 166722 from robot: 8