
***********Getting IO: 192.168.1.98
***********Robot Message Tuple(130, 127)

***********Getting IO: 192.168.1.98
***********Robot Message Tuple(130, 127)
***********Robot/Tower 98 is inactive 
***********Robot/Tower 98 is inactive 

***********Getting IO: 192.168.1.99
***********Robot Message Tuple(146, 127)

***********Getting IO: 192.168.1.99
***********Robot Message Tuple(146, 127)
***********Robot/Tower 99 is inactive 
***********Robot/Tower 99 is inactive 

***********Getting IO: 192.168.1.98
***********Robot Message Tuple(130, 127)
***********Robot/Tower 98 is inactive 

***********Getting IO: 192.168.1.99
***********Robot Message Tuple(146, 127)

***********Getting IO: 192.168.1.98
***********Robot Message Tuple(130, 127)
***********Robot/Tower 99 is inactive 
***********Robot/Tower 98 is inactive 

***********Getting IO: 192.168.1.99
***********Robot Message Tuple(146, 127)

***********Getting IO: 192.168.1.98
***********Robot Message Tuple(130, 127)
***********Robot/Tower 99 is inactive 
***********Robot/Tower 98 is inactive 

***********Getting IO: 192.168.1.99
***********Robot Message Tuple(146, 127)

***********Getting IO: 192.168.1.98
***********Robot Message Tuple(130, 127)
***********Robot/Tower 99 is inactive 
***********Robot/Tower 98 is inactive 

***********Getting IO: 192.168.1.99
***********Robot Message Tuple(146, 127)

***********Getting IO: 192.168.1.98
***********Robot Message Tuple(130, 127)
***********Robot/Tower 99 is inactive 
***********Robot/Tower 98 is inactive 

***********Getting IO: 192.168.1.99
***********Robot Message Tuple(146, 127)

***********Getting IO: 192.168.1.98
***********Robot Message Tuple(130, 127)
***********Robot/Tower 99 is inactive 
***********Robot/Tower 98 is inactive 

***********Getting IO: 192.168.1.99
***********Robot Message Tuple(146, 127)

***********Getting IO: 192.168.1.98
***********Robot Message Tuple(130, 127)
***********Robot/Tower 99 is inactive 
***********Robot/Tower 98 is inactive 

***********Getting IO: 192.168.1.99
***********Robot Message Tuple(146, 127)

***********Getting IO: 192.168.1.98
***********Robot Message Tuple(130, 127)
***********Robot/Tower 99 is inactive 
***********Robot/Tower 98 is inactive 

***********Getting IO: 192.168.1.99
***********Robot Message Tuple(146, 127)

***********Getting IO: 192.168.1.98
***********Robot Message Tuple(130, 127)
***********Robot/Tower 99 is inactive 
***********Robot/Tower 98 is inactive 

***********Getting IO: 192.168.1.99
***********Robot Message Tuple(146, 127)

***********Getting IO: 192.168.1.98
***********Robot Message Tuple(130, 127)
***********Robot/Tower 99 is inactive 
***********Robot/Tower 98 is inactive 

***********Getting IO: 192.168.1.99
***********Robot Message Tuple(146, 127)

***********Getting IO: 192.168.1.98
***********Robot Message Tuple(130, 127)
***********Robot/Tower 99 is inactive 
***********Robot/Tower 98 is inactive 

***********Getting IO: 192.168.1.99
***********Robot Message Tuple(146, 127)

***********Getting IO: 192.168.1.98
***********Robot Message Tuple(130, 127)
***********Robot/Tower 99 is inactive 
***********Robot/Tower 98 is inactive 

***********Getting IO: 192.168.1.99
***********Robot Message Tuple(146, 127)

***********Getting IO: 192.168.1.98
***********Robot Message Tuple(130, 127)
***********Robot/Tower 99 is inactive 
***********Robot/Tower 98 is inactive 

***********Getting IO: 192.168.1.99
***********Robot Message Tuple(146, 127)
***********Robot/Tower 99 is inactive 

***********Getting IO: 192.168.1.98
***********Robot Message Tuple(130, 127)
***********Robot/Tower 98 is inactive 

***********Getting IO: 192.168.1.99
***********Robot Message Tuple(146, 127)
***********Robot/Tower 99 is inactive 

***********Getting IO: 192.168.1.98
***********Robot Message Tuple(130, 127)
***********Robot/Tower 98 is inactive 

***********Getting IO: 192.168.1.99
***********Robot Message Tuple(146, 127)
***********Robot/Tower 99 is inactive 

***********Getting IO: 192.168.1.98
***********Robot Message Tuple(130, 127)
***********Robot/Tower 98 is inactive 

***********Getting IO: 192.168.1.99
***********Robot Message Tuple(146, 127)
***********Robot/Tower 99 is inactive 

***********Getting IO: 192.168.1.98
***********Robot Message Tuple(130, 127)
***********Robot/Tower 98 is inactive 

***********Getting IO: 192.168.1.99
***********Robot Message Tuple(146, 127)
***********Robot/Tower 99 is inactive 

***********Getting IO: 192.168.1.98
***********Robot Message Tuple(130, 127)
***********Robot/Tower 98 is inactive 

***********Getting IO: 192.168.1.99
***********Robot Message Tuple(146, 127)
***********Robot/Tower 99 is inactive 

***********Getting IO: 192.168.1.98
***********Robot Message Tuple(130, 127)
***********Robot/Tower 98 is inactive 

***********Getting IO: 192.168.1.99
***********Robot Message Tuple(146, 127)
***********Robot/Tower 99 is inactive 

***********Getting IO: 192.168.1.98
***********Robot Message Tuple(130, 127)
***********Robot/Tower 98 is inactive 

***********Getting IO: 192.168.1.99
***********Robot Message Tuple(146, 127)
***********Robot/Tower 99 is inactive 

***********Getting IO: 192.168.1.98
***********Robot Message Tuple(130, 127)
***********Robot/Tower 98 is inactive 

***********Getting IO: 192.168.1.99
***********Robot Message Tuple(146, 127)
***********Robot/Tower 99 is inactive 

***********Getting IO: 192.168.1.98
***********Robot Message Tuple(130, 127)
***********Robot/Tower 98 is inactive 

***********Getting IO: 192.168.1.99
