
***********Getting IO: 192.168.1.98
***********Robot Message Tuple(128, 127)
***********Robot/Tower 98 is inactive 

***********Getting IO: 192.168.1.98
***********Robot Message Tuple(128, 127)
***********Robot/Tower 98 is inactive 

***********Getting IO: 192.168.1.98
***********Robot Message Tuple(128, 127)
***********Robot/Tower 98 is inactive 

***********Getting IO: 192.168.1.98
***********Robot Message Tuple(128, 136)
***********Robot/Tower 98 is inactive 

***********Getting IO: 192.168.1.98
***********Robot Message Tuple(128, 142)
***********Robot/Tower 98 is inactive 

***********Getting IO: 192.168.1.98
***********Robot Message Tuple(128, 142)
***********Robot/Tower 98 is inactive 

***********Getting IO: 192.168.1.98
***********Robot Message Tuple(128, 142)
***********Robot/Tower 98 is inactive 

***********Getting IO: 192.168.1.98
***********Robot Message Tuple(128, 155)
***********Robot/Tower 98 is inactive 

***********Getting IO: 192.168.1.98
***********Robot Message Tuple(128, 168)

***********Getting IO: 192.168.1.98
***********Robot Message Tuple(128, 186)
***********Robot/Tower 98 is inactive 
***********Robot/Tower 98 is inactive 

***********Getting IO: 192.168.1.98
***********Robot Message Tuple(128, 199)
***********Robot/Tower 98 is inactive 

***********Getting IO: 192.168.1.98
***********Robot Message Tuple(128, 212)
***********Robot/Tower 98 is inactive 

***********Getting IO: 192.168.1.98
***********Robot Message Tuple(128, 224)
***********Robot/Tower 98 is inactive 

***********Getting IO: 192.168.1.98
***********Robot Message Tuple(146, 127)
***********Robot/Tower 98 is inactive 

***********Getting IO: 192.168.1.98
***********Robot Message Tuple(146, 127)

    Hit: 0 from tower: 98 against Blue Nexus
***********Getting IO: 192.168.1.98
***********Robot Message Tuple(146, 127)

    Hit: 0 from tower: 98 against Blue Nexus
***********Getting IO: 192.168.1.98
***********Robot Message Tuple(146, 127)

    Hit: 0 from tower: 98 against Blue Nexus
***********Getting IO: 192.168.1.98
***********Robot Message Tuple(146, 127)

    Hit: 0 from tower: 98 against Blue Nexus
***********Getting IO: 192.168.1.98
***********Robot Message Tuple(146, 127)

    Hit: 0 from tower: 98 against Blue Nexus
***********Getting IO: 192.168.1.98
***********Robot Message Tuple(146, 127)

    Hit: 0 from tower: 98 against Blue Nexus
***********Getting IO: 192.168.1.98
***********Robot Message Tuple(146, 127)

    Hit: 0 from tower: 98 against Blue Nexus
***********Getting IO: 192.168.1.98
***********Robot Message Tuple(146, 127)

    Hit: 0 from tower: 98 against Blue Nexus
***********Getting IO: 192.168.1.98
***********Robot Message Tuple(146, 115)

    Hit: 0 from tower: 98 against Blue Nexus
***********Getting IO: 192.168.1.98
***********Robot Message Tuple(146, 102)

    Hit: 0 from tower: 98 against Blue Nexus
***********Getting IO: 192.168.1.98
***********Robot Message Tuple(146, 90)

    Hit: 0 from tower: 98 against Blue Nexus
***********Getting IO: 192.168.1.98
***********Robot Message Tuple(146, 77)

    Hit: 0 from tower: 98 against Blue Nexus
***********Getting IO: 192.168.1.98
***********Robot Message Tuple(146, 64)

    Hit: 0 from tower: 98 against Blue Nexus
***********Getting IO: 192.168.1.98
***********Robot Message Tuple(146, 45)

    Hit: 0 from tower: 98 against Blue Nexus
***********Getting IO: 192.168.1.98
***********Robot Message Tuple(146, 32)

    Hit: 0 from tower: 98 against Blue Nexus
***********Getting IO: 192.168.1.98
***********Robot Message Tuple(130, 127)

    Hit: 0 from tower: 98 against Red Nexus
***********Getting IO: 192.168.1.98
***********Robot Message Tuple(130, 127)

    Hit: 0 from tower: 98 against Red Nexus
***********Getting IO: 192.168.1.98
***********Robot Message Tuple(130, 127)

    Hit: 0 from tower: 98 against Red Nexus
***********Getting IO: 192.168.1.98
***********Robot Message Tuple(130, 127)

    Hit: 0 from tower: 98 against Red Nexus
***********Getting IO: 192.168.1.98
***********Robot Message Tuple(130, 127)

    Hit: 0 from tower: 98 against Red Nexus
***********Getting IO: 192.168.1.98
***********Robot Message Tuple(130, 127)

    Hit: 0 from tower: 98 against Red Nexus
***********Getting IO: 192.168.1.98
***********Robot Message Tuple(130, 127)

    Hit: 0 from tower: 98 against Red Nexus
***********Getting IO: 192.168.1.98
***********Robot Message Tuple(130, 127)

    Hit: 0 from tower: 98 against Red Nexus
***********Getting IO: 192.168.1.98
***********Robot Message Tuple(130, 127)

    Hit: 0 from tower: 98 against Red Nexus
***********Getting IO: 192.168.1.98
***********Robot Message Tuple(130, 127)

    Hit: 0 from tower: 98 against Red Nexus
***********Getting IO: 192.168.1.98
***********Robot Message Tuple(130, 127)

    Hit: 0 from tower: 98 against Red Nexus
***********Getting IO: 192.168.1.98
***********Robot Message Tuple(130, 127)

    Hit: 0 from tower: 98 against Red Nexus
***********Getting IO: 192.168.1.98
***********Robot Message Tuple(130, 127)

    Hit: 0 from tower: 98 against Red Nexus
***********Getting IO: 192.168.1.98
***********Robot Message Tuple(130, 132)

    Hit: 0 from tower: 98 against Red Nexus
***********Getting IO: 192.168.1.98
***********Robot Message Tuple(130, 145)

    Hit: 0 from tower: 98 against Red Nexus
***********Getting IO: 192.168.1.98
***********Robot Message Tuple(130, 158)

    Hit: 0 from tower: 98 against Red Nexus
***********Getting IO: 192.168.1.98
***********Robot Message Tuple(130, 170)

    Hit: 0 from tower: 98 against Red Nexus
***********Getting IO: 192.168.1.98
***********Robot Message Tuple(130, 183)

    Hit: 0 from tower: 98 against Red Nexus
***********Getting IO: 192.168.1.98
***********Robot Message Tuple(130, 196)

    Hit: 0 from tower: 98 against Red Nexus
***********Getting IO: 192.168.1.98
***********Robot Message Tuple(130, 208)

    Hit: 0 from tower: 98 against Red Nexus
***********Getting IO: 192.168.1.98
***********Robot Message Tuple(130, 221)

    Hit: 0 from tower: 98 against Red Nexus
***********Getting IO: 192.168.1.98
***********Robot Message Tuple(146, 127)

    Hit: 0 from tower: 98 against Blue Nexus
***********Getting IO: 192.168.1.98
***********Robot Message Tuple(146, 127)

    Hit: 0 from tower: 98 against Blue Nexus
***********Getting IO: 192.168.1.98
***********Robot Message Tuple(146, 127)

    Hit: 0 from tower: 98 against Blue Nexus
***********Getting IO: 192.168.1.98
***********Robot Message Tuple(146, 127)

    Hit: 0 from tower: 98 against Blue Nexus
***********Getting IO: 192.168.1.98
***********Robot Message Tuple(146, 127)

    Hit: 0 from tower: 98 against Blue Nexus
***********Getting IO: 192.168.1.98
***********Robot Message Tuple(146, 127)

    Hit: 0 from tower: 98 against Blue Nexus
***********Getting IO: 192.168.1.98
***********Robot Message Tuple(146, 127)

    Hit: 0 from tower: 98 against Blue Nexus
***********Getting IO: 192.168.1.98
***********Robot Message Tuple(146, 127)

    Hit: 0 from tower: 98 against Blue Nexus
***********Getting IO: 192.168.1.98
***********Robot Message Tuple(146, 127)

    Hit: 0 from tower: 98 against Blue Nexus
***********Getting IO: 192.168.1.98
***********Robot Message Tuple(146, 127)

    Hit: 0 from tower: 98 against Blue Nexus
***********Getting IO: 192.168.1.98
***********Robot Message Tuple(146, 127)

    Hit: 0 from tower: 98 against Blue Nexus
***********Getting IO: 192.168.1.98
***********Robot Message Tuple(146, 127)

    Hit: 0 from tower: 98 against Blue Nexus
***********Getting IO: 192.168.1.98
***********Robot Message Tuple(146, 127)

    Hit: 0 from tower: 98 against Blue Nexus
***********Getting IO: 192.168.1.98
***********Robot Message Tuple(146, 127)

    Hit: 0 from tower: 98 against Blue Nexus
***********Getting IO: 192.168.1.98
***********Robot Message Tuple(146, 127)

    Hit: 0 from tower: 98 against Blue Nexus
***********Getting IO: 192.168.1.98
***********Robot Message Tuple(146, 127)

    Hit: 0 from tower: 98 against Blue Nexus
***********Getting IO: 192.168.1.98
***********Robot Message Tuple(146, 127)

    Hit: 0 from tower: 98 against Blue Nexus
***********Getting IO: 192.168.1.98
***********Robot Message Tuple(146, 127)

    Hit: 0 from tower: 98 against Blue Nexus
***********Getting IO: 192.168.1.98
***********Robot Message Tuple(146, 127)

    Hit: 0 from tower: 98 against Blue Nexus
***********Getting IO: 192.168.1.98
***********Robot Message Tuple(146, 127)

    Hit: 0 from tower: 98 against Blue Nexus
***********Getting IO: 192.168.1.98
***********Robot Message Tuple(146, 127)

    Hit: 0 from tower: 98 against Blue Nexus
***********Getting IO: 192.168.1.98
***********Robot Message Tuple(128, 127)

***********Getting IO: 192.168.1.98
***********Robot Message Tuple(128, 127)

***********Getting IO: 192.168.1.98
***********Robot Message Tuple(128, 127)

***********Getting IO: 192.168.1.98
***********Robot Message Tuple(128, 127)

***********Getting IO: 192.168.1.98
***********Robot Message Tuple(128, 127)

***********Getting IO: 192.168.1.98
***********Robot Message Tuple(128, 127)

***********Getting IO: 192.168.1.98
***********Robot Message Tuple(128, 127)

***********Getting IO: 192.168.1.98
***********Robot Message Tuple(128, 127)

***********Getting IO: 192.168.1.98
***********Robot Message Tuple(128, 127)

***********Getting IO: 192.168.1.112
***********Robot Message Tuple(1, 312340)

***********Getting IO: 192.168.1.98
***********Robot Message Tuple(128, 127)

***********Getting IO: 192.168.1.98
***********Robot Message Tuple(128, 127)

***********Getting IO: 192.168.1.98
***********Robot Message Tuple(128, 127)

***********Getting IO: 192.168.1.98
***********Robot Message Tuple(128, 127)

***********Getting IO: 192.168.1.98
***********Robot Message Tuple(128, 127)

***********Getting IO: 192.168.1.98
***********Robot Message Tuple(128, 127)

***********Getting IO: 192.168.1.98
***********Robot Message Tuple(128, 127)

***********Getting IO: 192.168.1.98
***********Robot Message Tuple(128, 127)

***********Getting IO: 192.168.1.98
***********Robot Message Tuple(128, 127)

***********Getting IO: 192.168.1.98
***********Robot Message Tuple(128, 127)

***********Getting IO: 192.168.1.98
***********Robot Message Tuple(128, 127)

***********Getting IO: 192.168.1.98
***********Robot Message Tuple(128, 127)

***********Getting IO: 192.168.1.98
***********Robot Message Tuple(128, 127)

***********Getting IO: 192.168.1.98
***********Robot Message Tuple(128, 127)

***********Getting IO: 192.168.1.98
***********Robot Message Tuple(128, 127)

***********Getting IO: 192.168.1.98
***********Robot Message Tuple(128, 127)

***********Getting IO: 192.168.1.98
***********Robot Message Tuple(128, 127)

***********Getting IO: 192.168.1.98
***********Robot Message Tuple(128, 127)

***********Getting IO: 192.168.1.98
***********Robot Message Tuple(128, 127)

***********Getting IO: 192.168.1.98
***********Robot Message Tuple(128, 127)

***********Getting IO: 192.168.1.98
***********Robot Message Tuple(128, 127)

***********Getting IO: 192.168.1.98
***********Robot Message Tuple(128, 127)

***********Getting IO: 192.168.1.98
***********Robot Message Tuple(128, 127)

***********Getting IO: 192.168.1.98
***********Robot Message Tuple(128, 127)

***********Getting IO: 192.168.1.98
***********Robot Message Tuple(128, 127)

***********Getting IO: 192.168.1.98
***********Robot Message Tuple(128, 127)

***********Getting IO: 192.168.1.98
***********Robot Message Tuple(128, 127)

***********Getting IO: 192.168.1.98
***********Robot Message Tuple(128, 127)

***********Getting IO: 192.168.1.98
***********Robot Message Tuple(128, 127)

***********Getting IO: 192.168.1.98
***********Robot Message Tuple(128, 127)

***********Getting IO: 192.168.1.98
***********Robot Message Tuple(128, 127)

***********Getting IO: 192.168.1.98
***********Robot Message Tuple(128, 127)

***********Getting IO: 192.168.1.98
***********Robot Message Tuple(128, 127)

***********Getting IO: 192.168.1.98
***********Robot Message Tuple(128, 127)

***********Getting IO: 192.168.1.98
***********Robot Message Tuple(128, 127)

***********Getting IO: 192.168.1.98
***********Robot Message Tuple(128, 127)

***********Getting IO: 192.168.1.98
***********Robot Message Tuple(128, 127)

***********Getting IO: 192.168.1.98
***********Robot Message Tuple(128, 127)

***********Getting IO: 192.168.1.98
***********Robot Message Tuple(128, 127)

***********Getting IO: 192.168.1.98
***********Robot Message Tuple(128, 127)

***********Getting IO: 192.168.1.98
***********Robot Message Tuple(128, 127)

***********Getting IO: 192.168.1.98
***********Robot Message Tuple(128, 127)

***********Getting IO: 192.168.1.98
***********Robot Message Tuple(128, 127)

***********Getting IO: 192.168.1.98
***********Robot Message Tuple(128, 127)

***********Getting IO: 192.168.1.98
***********Robot Message Tuple(128, 127)

***********Getting IO: 192.168.1.98
***********Robot Message Tuple(128, 127)

***********Getting IO: 192.168.1.98
***********Robot Message Tuple(128, 127)

***********Getting IO: 192.168.1.98
***********Robot Message Tuple(128, 127)

***********Getting IO: 192.168.1.98
***********Robot Message Tuple(128, 127)

***********Getting IO: 192.168.1.98
***********Robot Message Tuple(128, 127)

***********Getting IO: 192.168.1.98
***********Robot Message Tuple(128, 127)

***********Getting IO: 192.168.1.98
***********Robot Message Tuple(128, 127)

***********Getting IO: 192.168.1.98
***********Robot Message Tuple(128, 127)

***********Getting IO: 192.168.1.98
***********Robot Message Tuple(128, 127)

***********Getting IO: 192.168.1.98
***********Robot Message Tuple(128, 127)

***********Getting IO: 192.168.1.98
***********Robot Message Tuple(128, 127)

***********Getting IO: 192.168.1.98
***********Robot Message Tuple(128, 127)

***********Getting IO: 192.168.1.98
***********Robot Message Tuple(128, 127)

***********Getting IO: 192.168.1.98
***********Robot Message Tuple(128, 127)

***********Getting IO: 192.168.1.98
***********Robot Message Tuple(128, 127)

***********Getting IO: 192.168.1.98
***********Robot Message Tuple(128, 127)

***********Getting IO: 192.168.1.98
***********Robot Message Tuple(128, 127)

***********Getting IO: 192.168.1.98
***********Robot Message Tuple(128, 127)

***********Getting IO: 192.168.1.98
***********Robot Message Tuple(128, 127)

***********Getting IO: 192.168.1.98
***********Robot Message Tuple(128, 127)

***********Getting IO: 192.168.1.98
***********Robot Message Tuple(128, 127)

***********Getting IO: 192.168.1.98
***********Robot Message Tuple(128, 127)

***********Getting IO: 192.168.1.112
***********Robot Message Tuple(1, 380614)

***********Getting IO: 192.168.1.98
***********Robot Message Tuple(128, 127)

***********Getting IO: 192.168.1.98
***********Robot Message Tuple(128, 127)

***********Getting IO: 192.168.1.98
***********Robot Message Tuple(128, 127)

***********Getting IO: 192.168.1.98
***********Robot Message Tuple(128, 127)

***********Getting IO: 192.168.1.98
***********Robot Message Tuple(128, 127)

***********Getting IO: 192.168.1.98
***********Robot Message Tuple(128, 127)

***********Getting IO: 192.168.1.98
***********Robot Message Tuple(128, 127)

***********Getting IO: 192.168.1.98
***********Robot Message Tuple(128, 127)

***********Getting IO: 192.168.1.98
***********Robot Message Tuple(128, 127)

***********Getting IO: 192.168.1.98
***********Robot Message Tuple(128, 127)

***********Getting IO: 192.168.1.98
***********Robot Message Tuple(128, 127)

***********Getting IO: 192.168.1.98
***********Robot Message Tuple(128, 127)

***********Getting IO: 192.168.1.98
***********Robot Message Tuple(128, 127)

***********Getting IO: 192.168.1.98
***********Robot Message Tuple(128, 127)

***********Getting IO: 192.168.1.98
***********Robot Message Tuple(128, 127)

***********Getting IO: 192.168.1.98
***********Robot Message Tuple(128, 127)

***********Getting IO: 192.168.1.98
***********Robot Message Tuple(128, 127)

***********Getting IO: 192.168.1.98
***********Robot Message Tuple(128, 127)

***********Getting IO: 192.168.1.98
***********Robot Message Tuple(128, 127)

***********Getting IO: 192.168.1.112
***********Robot Message Tuple(1, 399519)

***********Getting IO: 192.168.1.98
***********Robot Message Tuple(128, 127)

***********Getting IO: 192.168.1.98
***********Robot Message Tuple(128, 127)

***********Getting IO: 192.168.1.98
***********Robot Message Tuple(128, 127)

***********Getting IO: 192.168.1.98
***********Robot Message Tuple(128, 127)

***********Getting IO: 192.168.1.98
***********Robot Message Tuple(128, 127)

***********Getting IO: 192.168.1.98
***********Robot Message Tuple(128, 127)

***********Getting IO: 192.168.1.98
***********Robot Message Tuple(128, 127)

***********Getting IO: 192.168.1.98
***********Robot Message Tuple(128, 127)

***********Getting IO: 192.168.1.98
***********Robot Message Tuple(128, 127)

***********Getting IO: 192.168.1.98
***********Robot Message Tuple(128, 127)

***********Getting IO: 192.168.1.98
***********Robot Message Tuple(128, 127)

***********Getting IO: 192.168.1.98
***********Robot Message Tuple(128, 127)

***********Getting IO: 192.168.1.98
***********Robot Message Tuple(128, 127)

***********Getting IO: 192.168.1.98
***********Robot Message Tuple(128, 127)

***********Getting IO: 192.168.1.98
***********Robot Message Tuple(128, 127)

***********Getting IO: 192.168.1.98
***********Robot Message Tuple(128, 127)

***********Getting IO: 192.168.1.98
***********Robot Message Tuple(128, 127)

***********Getting IO: 192.168.1.98
***********Robot Message Tuple(128, 127)

***********Getting IO: 192.168.1.98
***********Robot Message Tuple(128, 127)

***********Getting IO: 192.168.1.98
***********Robot Message Tuple(128, 127)

***********Getting IO: 192.168.1.98
***********Robot Message Tuple(128, 127)

***********Getting IO: 192.168.1.98
***********Robot Message Tuple(128, 127)

***********Getting IO: 192.168.1.98
***********Robot Message Tuple(128, 127)

***********Getting IO: 192.168.1.98
***********Robot Message Tuple(128, 127)

***********Getting IO: 192.168.1.98
***********Robot Message Tuple(128, 127)

***********Getting IO: 192.168.1.98
***********Robot Message Tuple(128, 127)

***********Getting IO: 192.168.1.98
***********Robot Message Tuple(128, 127)

***********Getting IO: 192.168.1.98
***********Robot Message Tuple(128, 127)

***********Getting IO: 192.168.1.98
***********Robot Message Tuple(128, 127)

***********Getting IO: 192.168.1.98
***********Robot Message Tuple(128, 127)

***********Getting IO: 192.168.1.98
***********Robot Message Tuple(128, 127)

***********Getting IO: 192.168.1.98
***********Robot Message Tuple(128, 127)

***********Getting IO: 192.168.1.98
***********Robot Message Tuple(128, 127)

***********Getting IO: 192.168.1.98
***********Robot Message Tuple(128, 127)

***********Getting IO: 192.168.1.98
***********Robot Message Tuple(128, 127)

***********Getting IO: 192.168.1.98
***********Robot Message Tuple(128, 127)

***********Getting IO: 192.168.1.98
***********Robot Message Tuple(128, 127)

***********Getting IO: 192.168.1.98
***********Robot Message Tuple(128, 127)

***********Getting IO: 192.168.1.98
***********Robot Message Tuple(128, 127)

***********Getting IO: 192.168.1.98
***********Robot Message Tuple(128, 127)

***********Getting IO: 192.168.1.98
***********Robot Message Tuple(128, 127)

***********Getting IO: 192.168.1.98
***********Robot Message Tuple(128, 127)

***********Getting IO: 192.168.1.98
***********Robot Message Tuple(128, 127)

***********Getting IO: 192.168.1.98
***********Robot Message Tuple(128, 127)

***********Getting IO: 192.168.1.98
***********Robot Message Tuple(128, 127)

***********Getting IO: 192.168.1.98
***********Robot Message Tuple(128, 127)

***********Getting IO: 192.168.1.98
***********Robot Message Tuple(128, 127)

***********Getting IO: 192.168.1.98
***********Robot Message Tuple(128, 127)

***********Getting IO: 192.168.1.98
***********Robot Message Tuple(128, 127)

***********Getting IO: 192.168.1.98
***********Robot Message Tuple(128, 127)

***********Getting IO: 192.168.1.98
***********Robot Message Tuple(128, 127)

***********Getting IO: 192.168.1.98
***********Robot Message Tuple(128, 127)

***********Getting IO: 192.168.1.98
***********Robot Message Tuple(128, 127)

***********Getting IO: 192.168.1.98
***********Robot Message Tuple(128, 127)

***********Getting IO: 192.168.1.98
***********Robot Message Tuple(128, 127)

***********Getting IO: 192.168.1.98
***********Robot Message Tuple(128, 127)

***********Getting IO: 192.168.1.98
***********Robot Message Tuple(128, 127)

***********Getting IO: 192.168.1.98
***********Robot Message Tuple(128, 127)

***********Getting IO: 192.168.1.98
***********Robot Message Tuple(128, 127)

***********Getting IO: 192.168.1.98
***********Robot Message Tuple(128, 127)

***********Getting IO: 192.168.1.98
***********Robot Message Tuple(128, 127)

***********Getting IO: 192.168.1.98
***********Robot Message Tuple(128, 127)

***********Getting IO: 192.168.1.98
***********Robot Message Tuple(128, 127)

***********Getting IO: 192.168.1.98
***********Robot Message Tuple(128, 127)

***********Getting IO: 192.168.1.98
***********Robot Message Tuple(128, 127)

***********Getting IO: 192.168.1.98
***********Robot Message Tuple(128, 127)

***********Getting IO: 192.168.1.98
***********Robot Message Tuple(128, 127)

***********Getting IO: 192.168.1.98
***********Robot Message Tuple(128, 127)

***********Getting IO: 192.168.1.98
***********Robot Message Tuple(128, 127)

***********Getting IO: 192.168.1.98
***********Robot Message Tuple(128, 127)

***********Getting IO: 192.168.1.98
***********Robot Message Tuple(128, 127)

***********Getting IO: 192.168.1.98
***********Robot Message Tuple(128, 127)

***********Getting IO: 192.168.1.98
***********Robot Message Tuple(128, 127)

***********Getting IO: 192.168.1.98
***********Robot Message Tuple(128, 127)

***********Getting IO: 192.168.1.98
***********Robot Message Tuple(128, 127)

***********Getting IO: 192.168.1.98
***********Robot Message Tuple(128, 127)

***********Getting IO: 192.168.1.98
***********Robot Message Tuple(128, 127)

***********Getting IO: 192.168.1.98
***********Robot Message Tuple(128, 127)

***********Getting IO: 192.168.1.98
***********Robot Message Tuple(128, 127)

***********Getting IO: 192.168.1.98
***********Robot Message Tuple(128, 127)

***********Getting IO: 192.168.1.98
***********Robot Message Tuple(128, 127)

***********Getting IO: 192.168.1.98
***********Robot Message Tuple(128, 127)

***********Getting IO: 192.168.1.98
***********Robot Message Tuple(128, 127)

***********Getting IO: 192.168.1.98
***********Robot Message Tuple(128, 127)

***********Getting IO: 192.168.1.98
***********Robot Message Tuple(128, 127)

***********Getting IO: 192.168.1.98
***********Robot Message Tuple(128, 127)

***********Getting IO: 192.168.1.98
***********Robot Message Tuple(128, 127)

***********Getting IO: 192.168.1.98
***********Robot Message Tuple(128, 127)

***********Getting IO: 192.168.1.98
***********Robot Message Tuple(128, 127)

***********Getting IO: 192.168.1.98
***********Robot Message Tuple(128, 127)

***********Getting IO: 192.168.1.98
***********Robot Message Tuple(128, 127)

***********Getting IO: 192.168.1.98
***********Robot Message Tuple(128, 127)

***********Getting IO: 192.168.1.98
***********Robot Message Tuple(128, 127)

***********Getting IO: 192.168.1.98
***********Robot Message Tuple(128, 127)

***********Getting IO: 192.168.1.98
***********Robot Message Tuple(128, 127)

***********Getting IO: 192.168.1.98
***********Robot Message Tuple(128, 127)

***********Getting IO: 192.168.1.98
***********Robot Message Tuple(128, 127)

***********Getting IO: 192.168.1.98
***********Robot Message Tuple(128, 127)

***********Getting IO: 192.168.1.98
***********Robot Message Tuple(128, 127)

***********Getting IO: 192.168.1.98
***********Robot Message Tuple(128, 127)

***********Getting IO: 192.168.1.98
***********Robot Message Tuple(128, 127)

***********Getting IO: 192.168.1.98
***********Robot Message Tuple(128, 127)

***********Getting IO: 192.168.1.98
***********Robot Message Tuple(128, 127)

***********Getting IO: 192.168.1.98
***********Robot Message Tuple(128, 127)

***********Getting IO: 192.168.1.98
***********Robot Message Tuple(128, 127)

***********Getting IO: 192.168.1.98
***********Robot Message Tuple(128, 127)

***********Getting IO: 192.168.1.98
***********Robot Message Tuple(128, 127)

***********Getting IO: 192.168.1.98
***********Robot Message Tuple(128, 127)

***********Getting IO: 192.168.1.98
***********Robot Message Tuple(128, 127)

***********Getting IO: 192.168.1.98
***********Robot Message Tuple(128, 127)

***********Getting IO: 192.168.1.98
***********Robot Message Tuple(128, 127)

***********Getting IO: 192.168.1.98
***********Robot Message Tuple(128, 127)

***********Getting IO: 192.168.1.98
***********Robot Message Tuple(128, 127)

***********Getting IO: 192.168.1.98
***********Robot Message Tuple(128, 127)

***********Getting IO: 192.168.1.98
***********Robot Message Tuple(128, 127)

***********Getting IO: 192.168.1.98
***********Robot Message Tuple(128, 127)

***********Getting IO: 192.168.1.98
***********Robot Message Tuple(128, 127)

***********Getting IO: 192.168.1.98
***********Robot Message Tuple(128, 127)

***********Getting IO: 192.168.1.98
***********Robot Message Tuple(128, 127)

***********Getting IO: 192.168.1.98
***********Robot Message Tuple(128, 127)

***********Getting IO: 192.168.1.98
***********Robot Message Tuple(128, 127)

***********Getting IO: 192.168.1.98
***********Robot Message Tuple(128, 127)

***********Getting IO: 192.168.1.98
***********Robot Message Tuple(128, 127)

***********Getting IO: 192.168.1.98
***********Robot Message Tuple(128, 127)

***********Getting IO: 192.168.1.98
***********Robot Message Tuple(128, 127)

***********Getting IO: 192.168.1.98
***********Robot Message Tuple(128, 127)

***********Getting IO: 192.168.1.98
***********Robot Message Tuple(128, 127)

***********Getting IO: 192.168.1.98
***********Robot Message Tuple(128, 127)

***********Getting IO: 192.168.1.98
***********Robot Message Tuple(128, 127)

***********Getting IO: 192.168.1.98
***********Robot Message Tuple(128, 127)

***********Getting IO: 192.168.1.98
***********Robot Message Tuple(128, 127)

***********Getting IO: 192.168.1.98
***********Robot Message Tuple(128, 127)

***********Getting IO: 192.168.1.98
***********Robot Message Tuple(128, 127)

***********Getting IO: 192.168.1.98
***********Robot Message Tuple(128, 127)

***********Getting IO: 192.168.1.98
***********Robot Message Tuple(128, 127)

***********Getting IO: 192.168.1.98
***********Robot Message Tuple(128, 127)

***********Getting IO: 192.168.1.98
***********Robot Message Tuple(128, 127)

***********Getting IO: 192.168.1.98
***********Robot Message Tuple(128, 127)

***********Getting IO: 192.168.1.98
***********Robot Message Tuple(128, 127)

***********Getting IO: 192.168.1.98
***********Robot Message Tuple(128, 127)

***********Getting IO: 192.168.1.98
***********Robot Message Tuple(128, 127)

***********Getting IO: 192.168.1.98
***********Robot Message Tuple(128, 127)

***********Getting IO: 192.168.1.98
***********Robot Message Tuple(128, 127)

***********Getting IO: 192.168.1.98
***********Robot Message Tuple(128, 127)

***********Getting IO: 192.168.1.98
***********Robot Message Tuple(128, 127)

***********Getting IO: 192.168.1.98
***********Robot Message Tuple(128, 127)

***********Getting IO: 192.168.1.98
***********Robot Message Tuple(128, 127)

***********Getting IO: 192.168.1.98
***********Robot Message Tuple(128, 127)

***********Getting IO: 192.168.1.98
***********Robot Message Tuple(128, 127)

***********Getting IO: 192.168.1.98
***********Robot Message Tuple(128, 127)

***********Getting IO: 192.168.1.98
***********Robot Message Tuple(128, 127)

***********Getting IO: 192.168.1.98
***********Robot Message Tuple(128, 127)

***********Getting IO: 192.168.1.98
***********Robot Message Tuple(128, 127)

***********Getting IO: 192.168.1.98
***********Robot Message Tuple(128, 127)

***********Getting IO: 192.168.1.98
***********Robot Message Tuple(128, 127)

***********Getting IO: 192.168.1.98
***********Robot Message Tuple(128, 127)

***********Getting IO: 192.168.1.98
***********Robot Message Tuple(128, 127)

***********Getting IO: 192.168.1.98
***********Robot Message Tuple(128, 127)

***********Getting IO: 192.168.1.98
***********Robot Message Tuple(128, 127)

***********Getting IO: 192.168.1.98
***********Robot Message Tuple(128, 127)

***********Getting IO: 192.168.1.98
***********Robot Message Tuple(128, 127)

***********Getting IO: 192.168.1.98
***********Robot Message Tuple(128, 127)

***********Getting IO: 192.168.1.98
***********Robot Message Tuple(128, 127)

***********Getting IO: 192.168.1.98
***********Robot Message Tuple(128, 127)

***********Getting IO: 192.168.1.98
***********Robot Message Tuple(128, 127)

***********Getting IO: 192.168.1.98
***********Robot Message Tuple(128, 127)

***********Getting IO: 192.168.1.98
***********Robot Message Tuple(128, 127)

***********Getting IO: 192.168.1.98
***********Robot Message Tuple(128, 127)

***********Getting IO: 192.168.1.98
***********Robot Message Tuple(128, 127)

***********Getting IO: 192.168.1.98
***********Robot Message Tuple(128, 127)

***********Getting IO: 192.168.1.98
***********Robot Message Tuple(128, 127)

***********Getting IO: 192.168.1.98
***********Robot Message Tuple(128, 127)

***********Getting IO: 192.168.1.98
***********Robot Message Tuple(128, 127)

***********Getting IO: 192.168.1.98
***********Robot Message Tuple(128, 127)

***********Getting IO: 192.168.1.98
***********Robot Message Tuple(128, 127)

***********Getting IO: 192.168.1.98
***********Robot Message Tuple(128, 127)

***********Getting IO: 192.168.1.98
***********Robot Message Tuple(128, 127)

***********Getting IO: 192.168.1.98
***********Robot Message Tuple(128, 127)

***********Getting IO: 192.168.1.98
***********Robot Message Tuple(128, 127)

***********Getting IO: 192.168.1.98
***********Robot Message Tuple(128, 127)

***********Getting IO: 192.168.1.98
***********Robot Message Tuple(128, 127)

***********Getting IO: 192.168.1.98
***********Robot Message Tuple(128, 127)

***********Getting IO: 192.168.1.98
***********Robot Message Tuple(128, 127)

***********Getting IO: 192.168.1.98
***********Robot Message Tuple(128, 127)

***********Getting IO: 192.168.1.98
***********Robot Message Tuple(128, 127)

***********Getting IO: 192.168.1.98
***********Robot Message Tuple(128, 127)

***********Getting IO: 192.168.1.98
***********Robot Message Tuple(128, 127)

***********Getting IO: 192.168.1.98
***********Robot Message Tuple(128, 127)

***********Getting IO: 192.168.1.98
***********Robot Message Tuple(128, 127)

***********Getting IO: 192.168.1.98
***********Robot Message Tuple(128, 127)

***********Getting IO: 192.168.1.98
***********Robot Message Tuple(128, 127)

***********Getting IO: 192.168.1.98
***********Robot Message Tuple(128, 127)

***********Getting IO: 192.168.1.98
***********Robot Message Tuple(128, 127)

***********Getting IO: 192.168.1.98
***********Robot Message Tuple(128, 127)

***********Getting IO: 192.168.1.98
***********Robot Message Tuple(128, 127)

***********Getting IO: 192.168.1.98
***********Robot Message Tuple(128, 127)

***********Getting IO: 192.168.1.98
***********Robot Message Tuple(128, 127)

***********Getting IO: 192.168.1.98
***********Robot Message Tuple(128, 127)

***********Getting IO: 192.168.1.98
***********Robot Message Tuple(128, 127)

***********Getting IO: 192.168.1.98
***********Robot Message Tuple(128, 127)

***********Getting IO: 192.168.1.98
***********Robot Message Tuple(128, 127)

***********Getting IO: 192.168.1.98
***********Robot Message Tuple(128, 127)

***********Getting IO: 192.168.1.98
***********Robot Message Tuple(128, 127)

***********Getting IO: 192.168.1.98
***********Robot Message Tuple(128, 127)

***********Getting IO: 192.168.1.98
***********Robot Message Tuple(128, 127)

***********Getting IO: 192.168.1.98
***********Robot Message Tuple(128, 127)

***********Getting IO: 192.168.1.98
***********Robot Message Tuple(128, 127)

***********Getting IO: 192.168.1.98
***********Robot Message Tuple(128, 127)

***********Getting IO: 192.168.1.98
***********Robot Message Tuple(128, 127)

***********Getting IO: 192.168.1.98
***********Robot Message Tuple(128, 127)

***********Getting IO: 192.168.1.98
***********Robot Message Tuple(128, 127)

***********Getting IO: 192.168.1.98
***********Robot Message Tuple(128, 127)

***********Getting IO: 192.168.1.98
***********Robot Message Tuple(128, 127)

***********Getting IO: 192.168.1.98
***********Robot Message Tuple(128, 127)

***********Getting IO: 192.168.1.98
***********Robot Message Tuple(128, 127)

***********Getting IO: 192.168.1.98
***********Robot Message Tuple(128, 127)

***********Getting IO: 192.168.1.98
***********Robot Message Tuple(128, 127)

***********Getting IO: 192.168.1.98
***********Robot Message Tuple(128, 127)

***********Getting IO: 192.168.1.98
***********Robot Message Tuple(128, 127)

***********Getting IO: 192.168.1.98
***********Robot Message Tuple(128, 127)

***********Getting IO: 192.168.1.98
***********Robot Message Tuple(128, 127)

***********Getting IO: 192.168.1.98
***********Robot Message Tuple(128, 127)

***********Getting IO: 192.168.1.98
***********Robot Message Tuple(128, 127)

***********Getting IO: 192.168.1.98
***********Robot Message Tuple(128, 127)

***********Getting IO: 192.168.1.98
***********Robot Message Tuple(128, 127)

***********Getting IO: 192.168.1.98
***********Robot Message Tuple(128, 127)

***********Getting IO: 192.168.1.98
***********Robot Message Tuple(128, 127)

***********Getting IO: 192.168.1.98
***********Robot Message Tuple(128, 127)

***********Getting IO: 192.168.1.98
***********Robot Message Tuple(128, 127)

***********Getting IO: 192.168.1.98
***********Robot Message Tuple(128, 127)

***********Getting IO: 192.168.1.98
***********Robot Message Tuple(128, 127)

***********Getting IO: 192.168.1.98
***********Robot Message Tuple(128, 127)

***********Getting IO: 192.168.1.98
***********Robot Message Tuple(128, 127)

***********Getting IO: 192.168.1.98
***********Robot Message Tuple(128, 127)

***********Getting IO: 192.168.1.98
***********Robot Message Tuple(128, 127)

***********Getting IO: 192.168.1.98
***********Robot Message Tuple(128, 127)

***********Getting IO: 192.168.1.98
***********Robot Message Tuple(128, 127)

***********Getting IO: 192.168.1.98
***********Robot Message Tuple(128, 127)

***********Getting IO: 192.168.1.98
***********Robot Message Tuple(128, 127)

***********Getting IO: 192.168.1.98
***********Robot Message Tuple(128, 127)

***********Getting IO: 192.168.1.98
***********Robot Message Tuple(128, 127)

***********Getting IO: 192.168.1.98
***********Robot Message Tuple(128, 127)

***********Getting IO: 192.168.1.98
***********Robot Message Tuple(128, 127)

***********Getting IO: 192.168.1.98
***********Robot Message Tuple(128, 127)

***********Getting IO: 192.168.1.98
***********Robot Message Tuple(128, 127)

***********Getting IO: 192.168.1.98
***********Robot Message Tuple(128, 127)

***********Getting IO: 192.168.1.98
***********Robot Message Tuple(128, 127)

***********Getting IO: 192.168.1.98
***********Robot Message Tuple(128, 127)

***********Getting IO: 192.168.1.98
***********Robot Message Tuple(128, 127)

***********Getting IO: 192.168.1.98
***********Robot Message Tuple(128, 127)

***********Getting IO: 192.168.1.98
***********Robot Message Tuple(128, 127)

***********Getting IO: 192.168.1.98
***********Robot Message Tuple(128, 127)

***********Getting IO: 192.168.1.98
***********Robot Message Tuple(128, 127)

***********Getting IO: 192.168.1.98
***********Robot Message Tuple(128, 127)

***********Getting IO: 192.168.1.98
***********Robot Message Tuple(128, 127)

***********Getting IO: 192.168.1.98
***********Robot Message Tuple(128, 127)

***********Getting IO: 192.168.1.98
***********Robot Message Tuple(128, 127)

***********Getting IO: 192.168.1.98
***********Robot Message Tuple(128, 127)

***********Getting IO: 192.168.1.98
***********Robot Message Tuple(128, 127)

***********Getting IO: 192.168.1.98
***********Robot Message Tuple(128, 127)

***********Getting IO: 192.168.1.98
***********Robot Message Tuple(128, 127)

***********Getting IO: 192.168.1.98
***********Robot Message Tuple(128, 127)

***********Getting IO: 192.168.1.98
***********Robot Message Tuple(128, 127)

***********Getting IO: 192.168.1.98
***********Robot Message Tuple(128, 127)

***********Getting IO: 192.168.1.98
***********Robot Message Tuple(128, 127)

***********Getting IO: 192.168.1.98
***********Robot Message Tuple(128, 127)

***********Getting IO: 192.168.1.98
***********Robot Message Tuple(128, 127)

***********Getting IO: 192.168.1.98
***********Robot Message Tuple(128, 127)

***********Getting IO: 192.168.1.98
***********Robot Message Tuple(128, 127)

***********Getting IO: 192.168.1.98
***********Robot Message Tuple(128, 127)

***********Getting IO: 192.168.1.98
***********Robot Message Tuple(128, 127)

***********Getting IO: 192.168.1.98
***********Robot Message Tuple(128, 127)

***********Getting IO: 192.168.1.98
***********Robot Message Tuple(128, 127)

***********Getting IO: 192.168.1.98
***********Robot Message Tuple(128, 127)

***********Getting IO: 192.168.1.98
***********Robot Message Tuple(128, 127)

***********Getting IO: 192.168.1.98
***********Robot Message Tuple(128, 127)

***********Getting IO: 192.168.1.98
***********Robot Message Tuple(128, 127)

***********Getting IO: 192.168.1.98
***********Robot Message Tuple(128, 127)

***********Getting IO: 192.168.1.98
***********Robot Message Tuple(128, 127)

***********Getting IO: 192.168.1.98
***********Robot Message Tuple(128, 127)

***********Getting IO: 192.168.1.98
***********Robot Message Tuple(128, 127)

***********Getting IO: 192.168.1.98
***********Robot Message Tuple(128, 127)

***********Getting IO: 192.168.1.98
***********Robot Message Tuple(128, 127)

***********Getting IO: 192.168.1.98
***********Robot Message Tuple(128, 127)

***********Getting IO: 192.168.1.98
***********Robot Message Tuple(128, 127)

***********Getting IO: 192.168.1.98
***********Robot Message Tuple(128, 127)

***********Getting IO: 192.168.1.98
***********Robot Message Tuple(128, 127)

***********Getting IO: 192.168.1.98
***********Robot Message Tuple(128, 127)

***********Getting IO: 192.168.1.98
***********Robot Message Tuple(128, 127)

***********Getting IO: 192.168.1.98
***********Robot Message Tuple(128, 127)

***********Getting IO: 192.168.1.98
***********Robot Message Tuple(128, 127)

***********Getting IO: 192.168.1.98
***********Robot Message Tuple(128, 127)

***********Getting IO: 192.168.1.98
***********Robot Message Tuple(128, 127)

***********Getting IO: 192.168.1.98
***********Robot Message Tuple(128, 127)

***********Getting IO: 192.168.1.98
***********Robot Message Tuple(128, 127)

***********Getting IO: 192.168.1.98
***********Robot Message Tuple(128, 127)

***********Getting IO: 192.168.1.98
***********Robot Message Tuple(128, 127)

***********Getting IO: 192.168.1.98
***********Robot Message Tuple(128, 127)

***********Getting IO: 192.168.1.98
***********Robot Message Tuple(128, 127)

***********Getting IO: 192.168.1.98
***********Robot Message Tuple(128, 127)

***********Getting IO: 192.168.1.98
***********Robot Message Tuple(128, 127)

***********Getting IO: 192.168.1.98
***********Robot Message Tuple(128, 127)

***********Getting IO: 192.168.1.98
***********Robot Message Tuple(128, 127)

***********Getting IO: 192.168.1.98
***********Robot Message Tuple(128, 127)

***********Getting IO: 192.168.1.98
***********Robot Message Tuple(128, 127)

***********Getting IO: 192.168.1.98
***********Robot Message Tuple(128, 127)

***********Getting IO: 192.168.1.98
***********Robot Message Tuple(128, 127)

***********Getting IO: 192.168.1.98
***********Robot Message Tuple(128, 127)

***********Getting IO: 192.168.1.98
***********Robot Message Tuple(128, 127)

***********Getting IO: 192.168.1.98
***********Robot Message Tuple(128, 127)

***********Getting IO: 192.168.1.98
***********Robot Message Tuple(128, 127)

***********Getting IO: 192.168.1.98
***********Robot Message Tuple(128, 127)

***********Getting IO: 192.168.1.98
***********Robot Message Tuple(128, 127)

***********Getting IO: 192.168.1.98
***********Robot Message Tuple(128, 127)

***********Getting IO: 192.168.1.98
***********Robot Message Tuple(128, 127)

***********Getting IO: 192.168.1.98
***********Robot Message Tuple(128, 127)

***********Getting IO: 192.168.1.98
***********Robot Message Tuple(128, 127)

***********Getting IO: 192.168.1.98
***********Robot Message Tuple(128, 127)

***********Getting IO: 192.168.1.98
***********Robot Message Tuple(128, 127)

***********Getting IO: 192.168.1.98
***********Robot Message Tuple(128, 127)

***********Getting IO: 192.168.1.98
***********Robot Message Tuple(128, 127)

***********Getting IO: 192.168.1.98
***********Robot Message Tuple(128, 127)

***********Getting IO: 192.168.1.98
***********Robot Message Tuple(128, 127)

***********Getting IO: 192.168.1.98
***********Robot Message Tuple(128, 127)

***********Getting IO: 192.168.1.98
***********Robot Message Tuple(128, 127)

***********Getting IO: 192.168.1.98
***********Robot Message Tuple(128, 127)

***********Getting IO: 192.168.1.98
***********Robot Message Tuple(128, 127)

***********Getting IO: 192.168.1.98
***********Robot Message Tuple(128, 127)

***********Getting IO: 192.168.1.98
***********Robot Message Tuple(128, 127)

***********Getting IO: 192.168.1.98
***********Robot Message Tuple(128, 127)

***********Getting IO: 192.168.1.98
***********Robot Message Tuple(128, 127)

***********Getting IO: 192.168.1.98
***********Robot Message Tuple(128, 127)

***********Getting IO: 192.168.1.98
***********Robot Message Tuple(128, 127)

***********Getting IO: 192.168.1.98
***********Robot Message Tuple(128, 127)

***********Getting IO: 192.168.1.98
***********Robot Message Tuple(128, 127)

***********Getting IO: 192.168.1.98
***********Robot Message Tuple(128, 127)

***********Getting IO: 192.168.1.98
***********Robot Message Tuple(128, 127)

***********Getting IO: 192.168.1.98
***********Robot Message Tuple(128, 127)

***********Getting IO: 192.168.1.98
***********Robot Message Tuple(128, 127)

***********Getting IO: 192.168.1.98
***********Robot Message Tuple(128, 127)

***********Getting IO: 192.168.1.98
***********Robot Message Tuple(128, 127)

***********Getting IO: 192.168.1.98
***********Robot Message Tuple(128, 127)

***********Getting IO: 192.168.1.98
***********Robot Message Tuple(128, 127)

***********Getting IO: 192.168.1.98
***********Robot Message Tuple(128, 127)

***********Getting IO: 192.168.1.98
***********Robot Message Tuple(128, 127)

***********Getting IO: 192.168.1.98
***********Robot Message Tuple(128, 127)

***********Getting IO: 192.168.1.98
***********Robot Message Tuple(128, 127)

***********Getting IO: 192.168.1.98
***********Robot Message Tuple(128, 127)

***********Getting IO: 192.168.1.98
***********Robot Message Tuple(128, 127)

***********Getting IO: 192.168.1.98
***********Robot Message Tuple(128, 127)

***********Getting IO: 192.168.1.98
***********Robot Message Tuple(128, 127)

***********Getting IO: 192.168.1.98
***********Robot Message Tuple(128, 127)

***********Getting IO: 192.168.1.98
***********Robot Message Tuple(128, 127)

***********Getting IO: 192.168.1.98
***********Robot Message Tuple(128, 127)

***********Getting IO: 192.168.1.98
***********Robot Message Tuple(128, 127)

***********Getting IO: 192.168.1.98
***********Robot Message Tuple(128, 127)

***********Getting IO: 192.168.1.98
***********Robot Message Tuple(128, 127)

***********Getting IO: 192.168.1.98
***********Robot Message Tuple(128, 127)

***********Getting IO: 192.168.1.98
***********Robot Message Tuple(128, 127)

***********Getting IO: 192.168.1.98
***********Robot Message Tuple(128, 127)

***********Getting IO: 192.168.1.98
***********Robot Message Tuple(128, 127)

***********Getting IO: 192.168.1.98
***********Robot Message Tuple(128, 127)

***********Getting IO: 192.168.1.98
***********Robot Message Tuple(128, 127)

***********Getting IO: 192.168.1.98
***********Robot Message Tuple(128, 127)

***********Getting IO: 192.168.1.98
***********Robot Message Tuple(128, 127)

***********Getting IO: 192.168.1.98
***********Robot Message Tuple(128, 127)

***********Getting IO: 192.168.1.98
***********Robot Message Tuple(128, 127)

***********Getting IO: 192.168.1.98
***********Robot Message Tuple(128, 127)

***********Getting IO: 192.168.1.98
***********Robot Message Tuple(128, 127)

***********Getting IO: 192.168.1.98
***********Robot Message Tuple(128, 127)

***********Getting IO: 192.168.1.98
***********Robot Message Tuple(128, 127)

***********Getting IO: 192.168.1.98
***********Robot Message Tuple(128, 127)

***********Getting IO: 192.168.1.98
***********Robot Message Tuple(128, 127)

***********Getting IO: 192.168.1.98
***********Robot Message Tuple(128, 127)

***********Getting IO: 192.168.1.98
***********Robot Message Tuple(128, 127)

***********Getting IO: 192.168.1.98
***********Robot Message Tuple(128, 127)

***********Getting IO: 192.168.1.98
***********Robot Message Tuple(128, 127)

***********Getting IO: 192.168.1.98
***********Robot Message Tuple(128, 127)

***********Getting IO: 192.168.1.98
***********Robot Message Tuple(128, 127)

***********Getting IO: 192.168.1.98
***********Robot Message Tuple(128, 127)

***********Getting IO: 192.168.1.98
***********Robot Message Tuple(128, 127)

***********Getting IO: 192.168.1.98
***********Robot Message Tuple(128, 127)

***********Getting IO: 192.168.1.98
***********Robot Message Tuple(128, 127)

***********Getting IO: 192.168.1.98
***********Robot Message Tuple(128, 127)

***********Getting IO: 192.168.1.98
***********Robot Message Tuple(128, 127)

***********Getting IO: 192.168.1.98
***********Robot Message Tuple(128, 127)

***********Getting IO: 192.168.1.98
***********Robot Message Tuple(128, 127)

***********Getting IO: 192.168.1.98
***********Robot Message Tuple(128, 127)

***********Getting IO: 192.168.1.98
***********Robot Message Tuple(128, 127)

***********Getting IO: 192.168.1.98
***********Robot Message Tuple(128, 127)

***********Getting IO: 192.168.1.98
***********Robot Message Tuple(128, 127)

***********Getting IO: 192.168.1.98
***********Robot Message Tuple(128, 127)

***********Getting IO: 192.168.1.98
***********Robot Message Tuple(128, 127)

***********Getting IO: 192.168.1.98
***********Robot Message Tuple(128, 127)

***********Getting IO: 192.168.1.98
***********Robot Message Tuple(128, 127)

***********Getting IO: 192.168.1.98
***********Robot Message Tuple(128, 127)

***********Getting IO: 192.168.1.98
***********Robot Message Tuple(128, 127)

***********Getting IO: 192.168.1.98
***********Robot Message Tuple(128, 127)

***********Getting IO: 192.168.1.98
***********Robot Message Tuple(128, 127)

***********Getting IO: 192.168.1.98
***********Robot Message Tuple(128, 127)

***********Getting IO: 192.168.1.98
***********Robot Message Tuple(128, 127)

***********Getting IO: 192.168.1.98
***********Robot Message Tuple(128, 127)

***********Getting IO: 192.168.1.98
***********Robot Message Tuple(128, 127)

***********Getting IO: 192.168.1.98
***********Robot Message Tuple(128, 127)

***********Getting IO: 192.168.1.98
***********Robot Message Tuple(128, 127)

***********Getting IO: 192.168.1.98
***********Robot Message Tuple(128, 127)

***********Getting IO: 192.168.1.98
***********Robot Message Tuple(128, 127)

***********Getting IO: 192.168.1.98
***********Robot Message Tuple(128, 127)

***********Getting IO: 192.168.1.98
***********Robot Message Tuple(128, 127)

***********Getting IO: 192.168.1.98
***********Robot Message Tuple(128, 127)

***********Getting IO: 192.168.1.98
***********Robot Message Tuple(128, 127)

***********Getting IO: 192.168.1.98
***********Robot Message Tuple(128, 127)

***********Getting IO: 192.168.1.98
***********Robot Message Tuple(128, 127)

***********Getting IO: 192.168.1.98
***********Robot Message Tuple(128, 127)

***********Getting IO: 192.168.1.98
***********Robot Message Tuple(128, 127)

***********Getting IO: 192.168.1.98
***********Robot Message Tuple(128, 127)

***********Getting IO: 192.168.1.98
***********Robot Message Tuple(128, 127)

***********Getting IO: 192.168.1.98
***********Robot Message Tuple(128, 127)

***********Getting IO: 192.168.1.98
***********Robot Message Tuple(128, 127)

***********Getting IO: 192.168.1.98
***********Robot Message Tuple(128, 127)

***********Getting IO: 192.168.1.98
***********Robot Message Tuple(128, 127)

***********Getting IO: 192.168.1.98
***********Robot Message Tuple(128, 127)

***********Getting IO: 192.168.1.98
***********Robot Message Tuple(128, 127)

***********Getting IO: 192.168.1.98
***********Robot Message Tuple(128, 127)

***********Getting IO: 192.168.1.98
***********Robot Message Tuple(128, 127)

***********Getting IO: 192.168.1.98
***********Robot Message Tuple(128, 127)

***********Getting IO: 192.168.1.98
***********Robot Message Tuple(128, 127)

***********Getting IO: 192.168.1.98
***********Robot Message Tuple(128, 127)

***********Getting IO: 192.168.1.98
***********Robot Message Tuple(128, 127)

***********Getting IO: 192.168.1.98
***********Robot Message Tuple(128, 127)

***********Getting IO: 192.168.1.98
***********Robot Message Tuple(128, 127)

***********Getting IO: 192.168.1.98
***********Robot Message Tuple(128, 127)
